^E:\과제\게임공학\2019-2\2019-2겜소공\11_2016180055\SIMPLEGAME\SIMPLEGAME\STDAFX.CPP
/c /ZI /JMC /nologo /W3 /WX- /diagnostics:classic /sdl /Od /Oy- /D WIN32 /D _DEBUG /D _CONSOLE /D _UNICODE /D UNICODE /Gm- /EHsc /RTC1 /MDd /GS /fp:precise /Zc:wchar_t /Zc:forScope /Zc:inline /Yc"stdafx.h" /Fp"DEBUG\SIMPLEGAME.PCH" /Fo"DEBUG\\" /Fd"DEBUG\VC141.PDB" /Gd /TP /analyze- /FC E:\과제\게임공학\2019-2\2019-2겜소공\11_2016180055\SIMPLEGAME\SIMPLEGAME\STDAFX.CPP
^E:\과제\게임공학\2019-2\2019-2겜소공\11_2016180055\SIMPLEGAME\SIMPLEGAME\RENDERER.CPP
/c /ZI /JMC /nologo /W3 /WX- /diagnostics:classic /sdl /Od /Oy- /D WIN32 /D _DEBUG /D _CONSOLE /D _UNICODE /D UNICODE /Gm- /EHsc /RTC1 /MDd /GS /fp:precise /Zc:wchar_t /Zc:forScope /Zc:inline /Yu"stdafx.h" /Fp"DEBUG\SIMPLEGAME.PCH" /Fo"DEBUG\\" /Fd"DEBUG\VC141.PDB" /Gd /TP /analyze- /FC E:\과제\게임공학\2019-2\2019-2겜소공\11_2016180055\SIMPLEGAME\SIMPLEGAME\RENDERER.CPP
^E:\과제\게임공학\2019-2\2019-2겜소공\11_2016180055\SIMPLEGAME\SIMPLEGAME\SIMPLEGAME.CPP
/c /ZI /JMC /nologo /W3 /WX- /diagnostics:classic /sdl /Od /Oy- /D WIN32 /D _DEBUG /D _CONSOLE /D _UNICODE /D UNICODE /Gm- /EHsc /RTC1 /MDd /GS /fp:precise /Zc:wchar_t /Zc:forScope /Zc:inline /Yu"stdafx.h" /Fp"DEBUG\SIMPLEGAME.PCH" /Fo"DEBUG\\" /Fd"DEBUG\VC141.PDB" /Gd /TP /analyze- /FC E:\과제\게임공학\2019-2\2019-2겜소공\11_2016180055\SIMPLEGAME\SIMPLEGAME\SIMPLEGAME.CPP
