^E:\과제\게임공학\2019-2\2019-2겜소공\11_2016180055\SIMPLEGAME\SIMPLEGAME\STDAFX.CPP
E:\논병아리\VC\TOOLS\MSVC\14.15.26726\BIN\HOSTX86\X86\1042\CLUI.DLL
C:\WINDOWS\GLOBALIZATION\SORTING\SORTDEFAULT.NLS
C:\WINDOWS\SYSTEM32\TZRES.DLL
E:\과제\게임공학\2019-2\2019-2겜소공\11_2016180055\SIMPLEGAME\SIMPLEGAME\STDAFX.H
E:\과제\게임공학\2019-2\2019-2겜소공\11_2016180055\SIMPLEGAME\SIMPLEGAME\TARGETVER.H
C:\PROGRAM FILES (X86)\WINDOWS KITS\10\INCLUDE\10.0.17134.0\SHARED\SDKDDKVER.H
C:\PROGRAM FILES (X86)\WINDOWS KITS\10\INCLUDE\10.0.17134.0\UCRT\STDIO.H
C:\PROGRAM FILES (X86)\WINDOWS KITS\10\INCLUDE\10.0.17134.0\UCRT\CORECRT.H
E:\논병아리\VC\TOOLS\MSVC\14.15.26726\INCLUDE\VCRUNTIME.H
E:\논병아리\VC\TOOLS\MSVC\14.15.26726\INCLUDE\SAL.H
E:\논병아리\VC\TOOLS\MSVC\14.15.26726\INCLUDE\CONCURRENCYSAL.H
E:\논병아리\VC\TOOLS\MSVC\14.15.26726\INCLUDE\VADEFS.H
C:\PROGRAM FILES (X86)\WINDOWS KITS\10\INCLUDE\10.0.17134.0\UCRT\CORECRT_WSTDIO.H
C:\PROGRAM FILES (X86)\WINDOWS KITS\10\INCLUDE\10.0.17134.0\UCRT\CORECRT_STDIO_CONFIG.H
C:\PROGRAM FILES (X86)\WINDOWS KITS\10\INCLUDE\10.0.17134.0\UCRT\TCHAR.H
C:\PROGRAM FILES (X86)\WINDOWS KITS\10\INCLUDE\10.0.17134.0\UCRT\WCHAR.H
C:\PROGRAM FILES (X86)\WINDOWS KITS\10\INCLUDE\10.0.17134.0\UCRT\CORECRT_MEMCPY_S.H
C:\PROGRAM FILES (X86)\WINDOWS KITS\10\INCLUDE\10.0.17134.0\UCRT\ERRNO.H
E:\논병아리\VC\TOOLS\MSVC\14.15.26726\INCLUDE\VCRUNTIME_STRING.H
C:\PROGRAM FILES (X86)\WINDOWS KITS\10\INCLUDE\10.0.17134.0\UCRT\CORECRT_WCONIO.H
C:\PROGRAM FILES (X86)\WINDOWS KITS\10\INCLUDE\10.0.17134.0\UCRT\CORECRT_WCTYPE.H
C:\PROGRAM FILES (X86)\WINDOWS KITS\10\INCLUDE\10.0.17134.0\UCRT\CORECRT_WDIRECT.H
C:\PROGRAM FILES (X86)\WINDOWS KITS\10\INCLUDE\10.0.17134.0\UCRT\CORECRT_WIO.H
C:\PROGRAM FILES (X86)\WINDOWS KITS\10\INCLUDE\10.0.17134.0\UCRT\CORECRT_SHARE.H
C:\PROGRAM FILES (X86)\WINDOWS KITS\10\INCLUDE\10.0.17134.0\UCRT\CORECRT_WPROCESS.H
C:\PROGRAM FILES (X86)\WINDOWS KITS\10\INCLUDE\10.0.17134.0\UCRT\CORECRT_WSTDLIB.H
C:\PROGRAM FILES (X86)\WINDOWS KITS\10\INCLUDE\10.0.17134.0\UCRT\CORECRT_WSTRING.H
C:\PROGRAM FILES (X86)\WINDOWS KITS\10\INCLUDE\10.0.17134.0\UCRT\CORECRT_WTIME.H
C:\PROGRAM FILES (X86)\WINDOWS KITS\10\INCLUDE\10.0.17134.0\UCRT\SYS\STAT.H
C:\PROGRAM FILES (X86)\WINDOWS KITS\10\INCLUDE\10.0.17134.0\UCRT\SYS\TYPES.H
^E:\과제\게임공학\2019-2\2019-2겜소공\11_2016180055\SIMPLEGAME\SIMPLEGAME\RENDERER.CPP
E:\과제\게임공학\2019-2\2019-2겜소공\11_2016180055\SIMPLEGAME\SIMPLEGAME\DEBUG\SIMPLEGAME.PCH
E:\과제\게임공학\2019-2\2019-2겜소공\11_2016180055\SIMPLEGAME\SIMPLEGAME\RENDERER.H
E:\논병아리\VC\TOOLS\MSVC\14.15.26726\INCLUDE\STRING
E:\논병아리\VC\TOOLS\MSVC\14.15.26726\INCLUDE\ISTREAM
E:\논병아리\VC\TOOLS\MSVC\14.15.26726\INCLUDE\OSTREAM
E:\논병아리\VC\TOOLS\MSVC\14.15.26726\INCLUDE\IOS
E:\논병아리\VC\TOOLS\MSVC\14.15.26726\INCLUDE\XLOCNUM
E:\논병아리\VC\TOOLS\MSVC\14.15.26726\INCLUDE\CLIMITS
E:\논병아리\VC\TOOLS\MSVC\14.15.26726\INCLUDE\YVALS.H
E:\논병아리\VC\TOOLS\MSVC\14.15.26726\INCLUDE\YVALS_CORE.H
E:\논병아리\VC\TOOLS\MSVC\14.15.26726\INCLUDE\XKEYCHECK.H
E:\논병아리\VC\TOOLS\MSVC\14.15.26726\INCLUDE\CRTDEFS.H
C:\PROGRAM FILES (X86)\WINDOWS KITS\10\INCLUDE\10.0.17134.0\UCRT\CRTDBG.H
E:\논병아리\VC\TOOLS\MSVC\14.15.26726\INCLUDE\VCRUNTIME_NEW_DEBUG.H
E:\논병아리\VC\TOOLS\MSVC\14.15.26726\INCLUDE\VCRUNTIME_NEW.H
E:\논병아리\VC\TOOLS\MSVC\14.15.26726\INCLUDE\USE_ANSI.H
E:\논병아리\VC\TOOLS\MSVC\14.15.26726\INCLUDE\LIMITS.H
E:\논병아리\VC\TOOLS\MSVC\14.15.26726\INCLUDE\CMATH
E:\논병아리\VC\TOOLS\MSVC\14.15.26726\INCLUDE\CSTDLIB
C:\PROGRAM FILES (X86)\WINDOWS KITS\10\INCLUDE\10.0.17134.0\UCRT\STDLIB.H
C:\PROGRAM FILES (X86)\WINDOWS KITS\10\INCLUDE\10.0.17134.0\UCRT\CORECRT_MALLOC.H
C:\PROGRAM FILES (X86)\WINDOWS KITS\10\INCLUDE\10.0.17134.0\UCRT\CORECRT_SEARCH.H
C:\PROGRAM FILES (X86)\WINDOWS KITS\10\INCLUDE\10.0.17134.0\UCRT\STDDEF.H
C:\PROGRAM FILES (X86)\WINDOWS KITS\10\INCLUDE\10.0.17134.0\UCRT\MATH.H
C:\PROGRAM FILES (X86)\WINDOWS KITS\10\INCLUDE\10.0.17134.0\UCRT\CORECRT_MATH.H
E:\논병아리\VC\TOOLS\MSVC\14.15.26726\INCLUDE\XTGMATH.H
E:\논병아리\VC\TOOLS\MSVC\14.15.26726\INCLUDE\XTR1COMMON
E:\논병아리\VC\TOOLS\MSVC\14.15.26726\INCLUDE\CSTDIO
E:\논병아리\VC\TOOLS\MSVC\14.15.26726\INCLUDE\STREAMBUF
E:\논병아리\VC\TOOLS\MSVC\14.15.26726\INCLUDE\XIOSBASE
E:\논병아리\VC\TOOLS\MSVC\14.15.26726\INCLUDE\XLOCALE
E:\논병아리\VC\TOOLS\MSVC\14.15.26726\INCLUDE\CSTRING
C:\PROGRAM FILES (X86)\WINDOWS KITS\10\INCLUDE\10.0.17134.0\UCRT\STRING.H
C:\PROGRAM FILES (X86)\WINDOWS KITS\10\INCLUDE\10.0.17134.0\UCRT\CORECRT_MEMORY.H
E:\논병아리\VC\TOOLS\MSVC\14.15.26726\INCLUDE\STDEXCEPT
E:\논병아리\VC\TOOLS\MSVC\14.15.26726\INCLUDE\EXCEPTION
E:\논병아리\VC\TOOLS\MSVC\14.15.26726\INCLUDE\TYPE_TRAITS
E:\논병아리\VC\TOOLS\MSVC\14.15.26726\INCLUDE\XSTDDEF
E:\논병아리\VC\TOOLS\MSVC\14.15.26726\INCLUDE\CSTDDEF
E:\논병아리\VC\TOOLS\MSVC\14.15.26726\INCLUDE\INITIALIZER_LIST
C:\PROGRAM FILES (X86)\WINDOWS KITS\10\INCLUDE\10.0.17134.0\UCRT\MALLOC.H
E:\논병아리\VC\TOOLS\MSVC\14.15.26726\INCLUDE\VCRUNTIME_EXCEPTION.H
E:\논병아리\VC\TOOLS\MSVC\14.15.26726\INCLUDE\EH.H
C:\PROGRAM FILES (X86)\WINDOWS KITS\10\INCLUDE\10.0.17134.0\UCRT\CORECRT_TERMINATE.H
E:\논병아리\VC\TOOLS\MSVC\14.15.26726\INCLUDE\XSTRING
E:\논병아리\VC\TOOLS\MSVC\14.15.26726\INCLUDE\XMEMORY0
E:\논병아리\VC\TOOLS\MSVC\14.15.26726\INCLUDE\CSTDINT
E:\논병아리\VC\TOOLS\MSVC\14.15.26726\INCLUDE\STDINT.H
E:\논병아리\VC\TOOLS\MSVC\14.15.26726\INCLUDE\LIMITS
E:\논병아리\VC\TOOLS\MSVC\14.15.26726\INCLUDE\YMATH.H
E:\논병아리\VC\TOOLS\MSVC\14.15.26726\INCLUDE\CFLOAT
C:\PROGRAM FILES (X86)\WINDOWS KITS\10\INCLUDE\10.0.17134.0\UCRT\FLOAT.H
E:\논병아리\VC\TOOLS\MSVC\14.15.26726\INCLUDE\CWCHAR
E:\논병아리\VC\TOOLS\MSVC\14.15.26726\INCLUDE\NEW
E:\논병아리\VC\TOOLS\MSVC\14.15.26726\INCLUDE\XUTILITY
E:\논병아리\VC\TOOLS\MSVC\14.15.26726\INCLUDE\UTILITY
E:\논병아리\VC\TOOLS\MSVC\14.15.26726\INCLUDE\IOSFWD
E:\논병아리\VC\TOOLS\MSVC\14.15.26726\INCLUDE\XATOMIC0.H
E:\논병아리\VC\TOOLS\MSVC\14.15.26726\INCLUDE\INTRIN0.H
E:\논병아리\VC\TOOLS\MSVC\14.15.26726\INCLUDE\TYPEINFO
E:\논병아리\VC\TOOLS\MSVC\14.15.26726\INCLUDE\VCRUNTIME_TYPEINFO.H
E:\논병아리\VC\TOOLS\MSVC\14.15.26726\INCLUDE\XLOCINFO
E:\논병아리\VC\TOOLS\MSVC\14.15.26726\INCLUDE\XLOCINFO.H
C:\PROGRAM FILES (X86)\WINDOWS KITS\10\INCLUDE\10.0.17134.0\UCRT\CTYPE.H
C:\PROGRAM FILES (X86)\WINDOWS KITS\10\INCLUDE\10.0.17134.0\UCRT\LOCALE.H
E:\논병아리\VC\TOOLS\MSVC\14.15.26726\INCLUDE\MEMORY
E:\논병아리\VC\TOOLS\MSVC\14.15.26726\INCLUDE\XMEMORY
E:\논병아리\VC\TOOLS\MSVC\14.15.26726\INCLUDE\XFACET
E:\논병아리\VC\TOOLS\MSVC\14.15.26726\INCLUDE\SYSTEM_ERROR
E:\논병아리\VC\TOOLS\MSVC\14.15.26726\INCLUDE\CERRNO
E:\논병아리\VC\TOOLS\MSVC\14.15.26726\INCLUDE\XCALL_ONCE.H
E:\논병아리\VC\TOOLS\MSVC\14.15.26726\INCLUDE\XERRC.H
C:\PROGRAM FILES (X86)\WINDOWS KITS\10\INCLUDE\10.0.17134.0\UCRT\SHARE.H
E:\논병아리\VC\TOOLS\MSVC\14.15.26726\INCLUDE\XSTRING_INSERT.H
E:\논병아리\VC\TOOLS\MSVC\14.15.26726\INCLUDE\FSTREAM
E:\논병아리\VC\TOOLS\MSVC\14.15.26726\INCLUDE\IOSTREAM
E:\논병아리\VC\TOOLS\MSVC\14.15.26726\INCLUDE\VECTOR
C:\PROGRAM FILES (X86)\WINDOWS KITS\10\INCLUDE\10.0.17134.0\UCRT\ASSERT.H
E:\과제\게임공학\2019-2\2019-2겜소공\11_2016180055\SIMPLEGAME\SIMPLEGAME\DEPENDENCIES\GLEW.H
C:\PROGRAM FILES (X86)\WINDOWS KITS\10\INCLUDE\10.0.17134.0\UM\GL\GLU.H
C:\PROGRAM FILES (X86)\WINDOWS KITS\10\INCLUDE\10.0.17134.0\SHARED\WINAPIFAMILY.H
C:\PROGRAM FILES (X86)\WINDOWS KITS\10\INCLUDE\10.0.17134.0\SHARED\WINPACKAGEFAMILY.H
C:\PROGRAM FILES (X86)\WINDOWS KITS\10\INCLUDE\10.0.17134.0\UM\GL\GL.H
E:\과제\게임공학\2019-2\2019-2겜소공\11_2016180055\SIMPLEGAME\SIMPLEGAME\DEPENDENCIES\GLM\GLM.HPP
E:\과제\게임공학\2019-2\2019-2겜소공\11_2016180055\SIMPLEGAME\SIMPLEGAME\DEPENDENCIES\GLM\DETAIL\_FIXES.HPP
E:\논병아리\VC\TOOLS\MSVC\14.15.26726\INCLUDE\CASSERT
E:\과제\게임공학\2019-2\2019-2겜소공\11_2016180055\SIMPLEGAME\SIMPLEGAME\DEPENDENCIES\GLM\FWD.HPP
E:\과제\게임공학\2019-2\2019-2겜소공\11_2016180055\SIMPLEGAME\SIMPLEGAME\DEPENDENCIES\GLM\DETAIL\TYPE_INT.HPP
E:\과제\게임공학\2019-2\2019-2겜소공\11_2016180055\SIMPLEGAME\SIMPLEGAME\DEPENDENCIES\GLM\DETAIL\SETUP.HPP
E:\과제\게임공학\2019-2\2019-2겜소공\11_2016180055\SIMPLEGAME\SIMPLEGAME\DEPENDENCIES\GLM\SIMD\PLATFORM.H
E:\논병아리\VC\TOOLS\MSVC\14.15.26726\INCLUDE\EMMINTRIN.H
E:\논병아리\VC\TOOLS\MSVC\14.15.26726\INCLUDE\XMMINTRIN.H
E:\논병아리\VC\TOOLS\MSVC\14.15.26726\INCLUDE\MMINTRIN.H
E:\과제\게임공학\2019-2\2019-2겜소공\11_2016180055\SIMPLEGAME\SIMPLEGAME\DEPENDENCIES\GLM\DETAIL\TYPE_FLOAT.HPP
E:\과제\게임공학\2019-2\2019-2겜소공\11_2016180055\SIMPLEGAME\SIMPLEGAME\DEPENDENCIES\GLM\DETAIL\TYPE_VEC.HPP
E:\과제\게임공학\2019-2\2019-2겜소공\11_2016180055\SIMPLEGAME\SIMPLEGAME\DEPENDENCIES\GLM\DETAIL\PRECISION.HPP
E:\과제\게임공학\2019-2\2019-2겜소공\11_2016180055\SIMPLEGAME\SIMPLEGAME\DEPENDENCIES\GLM\DETAIL\TYPE_MAT.HPP
E:\과제\게임공학\2019-2\2019-2겜소공\11_2016180055\SIMPLEGAME\SIMPLEGAME\DEPENDENCIES\GLM\VEC2.HPP
E:\과제\게임공학\2019-2\2019-2겜소공\11_2016180055\SIMPLEGAME\SIMPLEGAME\DEPENDENCIES\GLM\DETAIL\TYPE_VEC2.HPP
E:\과제\게임공학\2019-2\2019-2겜소공\11_2016180055\SIMPLEGAME\SIMPLEGAME\DEPENDENCIES\GLM\DETAIL\TYPE_VEC2.INL
E:\과제\게임공학\2019-2\2019-2겜소공\11_2016180055\SIMPLEGAME\SIMPLEGAME\DEPENDENCIES\GLM\VEC3.HPP
E:\과제\게임공학\2019-2\2019-2겜소공\11_2016180055\SIMPLEGAME\SIMPLEGAME\DEPENDENCIES\GLM\DETAIL\TYPE_VEC3.HPP
E:\과제\게임공학\2019-2\2019-2겜소공\11_2016180055\SIMPLEGAME\SIMPLEGAME\DEPENDENCIES\GLM\DETAIL\TYPE_VEC3.INL
E:\과제\게임공학\2019-2\2019-2겜소공\11_2016180055\SIMPLEGAME\SIMPLEGAME\DEPENDENCIES\GLM\VEC4.HPP
E:\과제\게임공학\2019-2\2019-2겜소공\11_2016180055\SIMPLEGAME\SIMPLEGAME\DEPENDENCIES\GLM\DETAIL\TYPE_VEC4.HPP
E:\과제\게임공학\2019-2\2019-2겜소공\11_2016180055\SIMPLEGAME\SIMPLEGAME\DEPENDENCIES\GLM\DETAIL\TYPE_VEC4.INL
E:\과제\게임공학\2019-2\2019-2겜소공\11_2016180055\SIMPLEGAME\SIMPLEGAME\DEPENDENCIES\GLM\DETAIL\TYPE_VEC4_SIMD.INL
E:\과제\게임공학\2019-2\2019-2겜소공\11_2016180055\SIMPLEGAME\SIMPLEGAME\DEPENDENCIES\GLM\MAT2X2.HPP
E:\과제\게임공학\2019-2\2019-2겜소공\11_2016180055\SIMPLEGAME\SIMPLEGAME\DEPENDENCIES\GLM\DETAIL\TYPE_MAT2X2.HPP
E:\과제\게임공학\2019-2\2019-2겜소공\11_2016180055\SIMPLEGAME\SIMPLEGAME\DEPENDENCIES\GLM\DETAIL\TYPE_MAT2X2.INL
E:\과제\게임공학\2019-2\2019-2겜소공\11_2016180055\SIMPLEGAME\SIMPLEGAME\DEPENDENCIES\GLM\DETAIL\FUNC_MATRIX.HPP
E:\과제\게임공학\2019-2\2019-2겜소공\11_2016180055\SIMPLEGAME\SIMPLEGAME\DEPENDENCIES\GLM\MAT2X3.HPP
E:\과제\게임공학\2019-2\2019-2겜소공\11_2016180055\SIMPLEGAME\SIMPLEGAME\DEPENDENCIES\GLM\DETAIL\TYPE_MAT2X3.HPP
E:\과제\게임공학\2019-2\2019-2겜소공\11_2016180055\SIMPLEGAME\SIMPLEGAME\DEPENDENCIES\GLM\DETAIL\TYPE_MAT2X3.INL
E:\과제\게임공학\2019-2\2019-2겜소공\11_2016180055\SIMPLEGAME\SIMPLEGAME\DEPENDENCIES\GLM\MAT2X4.HPP
E:\과제\게임공학\2019-2\2019-2겜소공\11_2016180055\SIMPLEGAME\SIMPLEGAME\DEPENDENCIES\GLM\DETAIL\TYPE_MAT2X4.HPP
E:\과제\게임공학\2019-2\2019-2겜소공\11_2016180055\SIMPLEGAME\SIMPLEGAME\DEPENDENCIES\GLM\DETAIL\TYPE_MAT2X4.INL
E:\과제\게임공학\2019-2\2019-2겜소공\11_2016180055\SIMPLEGAME\SIMPLEGAME\DEPENDENCIES\GLM\MAT3X2.HPP
E:\과제\게임공학\2019-2\2019-2겜소공\11_2016180055\SIMPLEGAME\SIMPLEGAME\DEPENDENCIES\GLM\DETAIL\TYPE_MAT3X2.HPP
E:\과제\게임공학\2019-2\2019-2겜소공\11_2016180055\SIMPLEGAME\SIMPLEGAME\DEPENDENCIES\GLM\DETAIL\TYPE_MAT3X2.INL
E:\과제\게임공학\2019-2\2019-2겜소공\11_2016180055\SIMPLEGAME\SIMPLEGAME\DEPENDENCIES\GLM\MAT3X3.HPP
E:\과제\게임공학\2019-2\2019-2겜소공\11_2016180055\SIMPLEGAME\SIMPLEGAME\DEPENDENCIES\GLM\DETAIL\TYPE_MAT3X3.HPP
E:\과제\게임공학\2019-2\2019-2겜소공\11_2016180055\SIMPLEGAME\SIMPLEGAME\DEPENDENCIES\GLM\DETAIL\TYPE_MAT3X3.INL
E:\과제\게임공학\2019-2\2019-2겜소공\11_2016180055\SIMPLEGAME\SIMPLEGAME\DEPENDENCIES\GLM\MAT3X4.HPP
E:\과제\게임공학\2019-2\2019-2겜소공\11_2016180055\SIMPLEGAME\SIMPLEGAME\DEPENDENCIES\GLM\DETAIL\TYPE_MAT3X4.HPP
E:\과제\게임공학\2019-2\2019-2겜소공\11_2016180055\SIMPLEGAME\SIMPLEGAME\DEPENDENCIES\GLM\DETAIL\TYPE_MAT3X4.INL
E:\과제\게임공학\2019-2\2019-2겜소공\11_2016180055\SIMPLEGAME\SIMPLEGAME\DEPENDENCIES\GLM\MAT4X2.HPP
E:\과제\게임공학\2019-2\2019-2겜소공\11_2016180055\SIMPLEGAME\SIMPLEGAME\DEPENDENCIES\GLM\DETAIL\TYPE_MAT4X2.HPP
E:\과제\게임공학\2019-2\2019-2겜소공\11_2016180055\SIMPLEGAME\SIMPLEGAME\DEPENDENCIES\GLM\DETAIL\TYPE_MAT4X2.INL
E:\과제\게임공학\2019-2\2019-2겜소공\11_2016180055\SIMPLEGAME\SIMPLEGAME\DEPENDENCIES\GLM\MAT4X3.HPP
E:\과제\게임공학\2019-2\2019-2겜소공\11_2016180055\SIMPLEGAME\SIMPLEGAME\DEPENDENCIES\GLM\DETAIL\TYPE_MAT4X3.HPP
E:\과제\게임공학\2019-2\2019-2겜소공\11_2016180055\SIMPLEGAME\SIMPLEGAME\DEPENDENCIES\GLM\DETAIL\TYPE_MAT4X3.INL
E:\과제\게임공학\2019-2\2019-2겜소공\11_2016180055\SIMPLEGAME\SIMPLEGAME\DEPENDENCIES\GLM\MAT4X4.HPP
E:\과제\게임공학\2019-2\2019-2겜소공\11_2016180055\SIMPLEGAME\SIMPLEGAME\DEPENDENCIES\GLM\DETAIL\TYPE_MAT4X4.HPP
E:\과제\게임공학\2019-2\2019-2겜소공\11_2016180055\SIMPLEGAME\SIMPLEGAME\DEPENDENCIES\GLM\DETAIL\TYPE_MAT4X4.INL
E:\과제\게임공학\2019-2\2019-2겜소공\11_2016180055\SIMPLEGAME\SIMPLEGAME\DEPENDENCIES\GLM\DETAIL\TYPE_MAT4X4_SIMD.INL
E:\과제\게임공학\2019-2\2019-2겜소공\11_2016180055\SIMPLEGAME\SIMPLEGAME\DEPENDENCIES\GLM\DETAIL\FUNC_MATRIX.INL
E:\과제\게임공학\2019-2\2019-2겜소공\11_2016180055\SIMPLEGAME\SIMPLEGAME\DEPENDENCIES\GLM\GEOMETRIC.HPP
E:\과제\게임공학\2019-2\2019-2겜소공\11_2016180055\SIMPLEGAME\SIMPLEGAME\DEPENDENCIES\GLM\DETAIL\FUNC_GEOMETRIC.HPP
E:\과제\게임공학\2019-2\2019-2겜소공\11_2016180055\SIMPLEGAME\SIMPLEGAME\DEPENDENCIES\GLM\DETAIL\FUNC_GEOMETRIC.INL
E:\과제\게임공학\2019-2\2019-2겜소공\11_2016180055\SIMPLEGAME\SIMPLEGAME\DEPENDENCIES\GLM\DETAIL\FUNC_EXPONENTIAL.HPP
E:\과제\게임공학\2019-2\2019-2겜소공\11_2016180055\SIMPLEGAME\SIMPLEGAME\DEPENDENCIES\GLM\DETAIL\TYPE_VEC1.HPP
E:\과제\게임공학\2019-2\2019-2겜소공\11_2016180055\SIMPLEGAME\SIMPLEGAME\DEPENDENCIES\GLM\DETAIL\TYPE_VEC1.INL
E:\과제\게임공학\2019-2\2019-2겜소공\11_2016180055\SIMPLEGAME\SIMPLEGAME\DEPENDENCIES\GLM\DETAIL\FUNC_EXPONENTIAL.INL
E:\과제\게임공학\2019-2\2019-2겜소공\11_2016180055\SIMPLEGAME\SIMPLEGAME\DEPENDENCIES\GLM\DETAIL\FUNC_VECTOR_RELATIONAL.HPP
E:\과제\게임공학\2019-2\2019-2겜소공\11_2016180055\SIMPLEGAME\SIMPLEGAME\DEPENDENCIES\GLM\DETAIL\FUNC_VECTOR_RELATIONAL.INL
E:\과제\게임공학\2019-2\2019-2겜소공\11_2016180055\SIMPLEGAME\SIMPLEGAME\DEPENDENCIES\GLM\DETAIL\FUNC_VECTOR_RELATIONAL_SIMD.INL
E:\과제\게임공학\2019-2\2019-2겜소공\11_2016180055\SIMPLEGAME\SIMPLEGAME\DEPENDENCIES\GLM\DETAIL\_VECTORIZE.HPP
E:\과제\게임공학\2019-2\2019-2겜소공\11_2016180055\SIMPLEGAME\SIMPLEGAME\DEPENDENCIES\GLM\DETAIL\FUNC_EXPONENTIAL_SIMD.INL
E:\과제\게임공학\2019-2\2019-2겜소공\11_2016180055\SIMPLEGAME\SIMPLEGAME\DEPENDENCIES\GLM\SIMD\EXPONENTIAL.H
E:\과제\게임공학\2019-2\2019-2겜소공\11_2016180055\SIMPLEGAME\SIMPLEGAME\DEPENDENCIES\GLM\DETAIL\FUNC_COMMON.HPP
E:\과제\게임공학\2019-2\2019-2겜소공\11_2016180055\SIMPLEGAME\SIMPLEGAME\DEPENDENCIES\GLM\DETAIL\FUNC_COMMON.INL
E:\과제\게임공학\2019-2\2019-2겜소공\11_2016180055\SIMPLEGAME\SIMPLEGAME\DEPENDENCIES\GLM\DETAIL\FUNC_COMMON_SIMD.INL
E:\과제\게임공학\2019-2\2019-2겜소공\11_2016180055\SIMPLEGAME\SIMPLEGAME\DEPENDENCIES\GLM\SIMD\COMMON.H
E:\논병아리\VC\TOOLS\MSVC\14.15.26726\INCLUDE\IMMINTRIN.H
E:\논병아리\VC\TOOLS\MSVC\14.15.26726\INCLUDE\WMMINTRIN.H
E:\논병아리\VC\TOOLS\MSVC\14.15.26726\INCLUDE\NMMINTRIN.H
E:\논병아리\VC\TOOLS\MSVC\14.15.26726\INCLUDE\SMMINTRIN.H
E:\논병아리\VC\TOOLS\MSVC\14.15.26726\INCLUDE\TMMINTRIN.H
E:\논병아리\VC\TOOLS\MSVC\14.15.26726\INCLUDE\PMMINTRIN.H
E:\논병아리\VC\TOOLS\MSVC\14.15.26726\INCLUDE\ZMMINTRIN.H
E:\과제\게임공학\2019-2\2019-2겜소공\11_2016180055\SIMPLEGAME\SIMPLEGAME\DEPENDENCIES\GLM\DETAIL\FUNC_GEOMETRIC_SIMD.INL
E:\과제\게임공학\2019-2\2019-2겜소공\11_2016180055\SIMPLEGAME\SIMPLEGAME\DEPENDENCIES\GLM\SIMD\GEOMETRIC.H
E:\과제\게임공학\2019-2\2019-2겜소공\11_2016180055\SIMPLEGAME\SIMPLEGAME\DEPENDENCIES\GLM\DETAIL\FUNC_MATRIX_SIMD.INL
E:\과제\게임공학\2019-2\2019-2겜소공\11_2016180055\SIMPLEGAME\SIMPLEGAME\DEPENDENCIES\GLM\SIMD\MATRIX.H
E:\과제\게임공학\2019-2\2019-2겜소공\11_2016180055\SIMPLEGAME\SIMPLEGAME\DEPENDENCIES\GLM\TRIGONOMETRIC.HPP
E:\과제\게임공학\2019-2\2019-2겜소공\11_2016180055\SIMPLEGAME\SIMPLEGAME\DEPENDENCIES\GLM\DETAIL\FUNC_TRIGONOMETRIC.HPP
E:\과제\게임공학\2019-2\2019-2겜소공\11_2016180055\SIMPLEGAME\SIMPLEGAME\DEPENDENCIES\GLM\DETAIL\FUNC_TRIGONOMETRIC.INL
E:\과제\게임공학\2019-2\2019-2겜소공\11_2016180055\SIMPLEGAME\SIMPLEGAME\DEPENDENCIES\GLM\DETAIL\FUNC_TRIGONOMETRIC_SIMD.INL
E:\과제\게임공학\2019-2\2019-2겜소공\11_2016180055\SIMPLEGAME\SIMPLEGAME\DEPENDENCIES\GLM\EXPONENTIAL.HPP
E:\과제\게임공학\2019-2\2019-2겜소공\11_2016180055\SIMPLEGAME\SIMPLEGAME\DEPENDENCIES\GLM\COMMON.HPP
E:\과제\게임공학\2019-2\2019-2겜소공\11_2016180055\SIMPLEGAME\SIMPLEGAME\DEPENDENCIES\GLM\PACKING.HPP
E:\과제\게임공학\2019-2\2019-2겜소공\11_2016180055\SIMPLEGAME\SIMPLEGAME\DEPENDENCIES\GLM\DETAIL\FUNC_PACKING.HPP
E:\과제\게임공학\2019-2\2019-2겜소공\11_2016180055\SIMPLEGAME\SIMPLEGAME\DEPENDENCIES\GLM\DETAIL\FUNC_PACKING.INL
E:\과제\게임공학\2019-2\2019-2겜소공\11_2016180055\SIMPLEGAME\SIMPLEGAME\DEPENDENCIES\GLM\DETAIL\TYPE_HALF.HPP
E:\과제\게임공학\2019-2\2019-2겜소공\11_2016180055\SIMPLEGAME\SIMPLEGAME\DEPENDENCIES\GLM\DETAIL\TYPE_HALF.INL
E:\과제\게임공학\2019-2\2019-2겜소공\11_2016180055\SIMPLEGAME\SIMPLEGAME\DEPENDENCIES\GLM\DETAIL\FUNC_PACKING_SIMD.INL
E:\과제\게임공학\2019-2\2019-2겜소공\11_2016180055\SIMPLEGAME\SIMPLEGAME\DEPENDENCIES\GLM\MATRIX.HPP
E:\과제\게임공학\2019-2\2019-2겜소공\11_2016180055\SIMPLEGAME\SIMPLEGAME\DEPENDENCIES\GLM\VECTOR_RELATIONAL.HPP
E:\과제\게임공학\2019-2\2019-2겜소공\11_2016180055\SIMPLEGAME\SIMPLEGAME\DEPENDENCIES\GLM\INTEGER.HPP
E:\과제\게임공학\2019-2\2019-2겜소공\11_2016180055\SIMPLEGAME\SIMPLEGAME\DEPENDENCIES\GLM\DETAIL\FUNC_INTEGER.HPP
E:\과제\게임공학\2019-2\2019-2겜소공\11_2016180055\SIMPLEGAME\SIMPLEGAME\DEPENDENCIES\GLM\DETAIL\FUNC_INTEGER.INL
E:\논병아리\VC\TOOLS\MSVC\14.15.26726\INCLUDE\INTRIN.H
E:\논병아리\VC\TOOLS\MSVC\14.15.26726\INCLUDE\SETJMP.H
E:\논병아리\VC\TOOLS\MSVC\14.15.26726\INCLUDE\AMMINTRIN.H
E:\논병아리\VC\TOOLS\MSVC\14.15.26726\INCLUDE\MM3DNOW.H
E:\과제\게임공학\2019-2\2019-2겜소공\11_2016180055\SIMPLEGAME\SIMPLEGAME\DEPENDENCIES\GLM\DETAIL\FUNC_INTEGER_SIMD.INL
E:\과제\게임공학\2019-2\2019-2겜소공\11_2016180055\SIMPLEGAME\SIMPLEGAME\DEPENDENCIES\GLM\SIMD\INTEGER.H
E:\과제\게임공학\2019-2\2019-2겜소공\11_2016180055\SIMPLEGAME\SIMPLEGAME\DEPENDENCIES\GLM\GTC\MATRIX_TRANSFORM.HPP
E:\과제\게임공학\2019-2\2019-2겜소공\11_2016180055\SIMPLEGAME\SIMPLEGAME\DEPENDENCIES\GLM\GTC\CONSTANTS.HPP
E:\과제\게임공학\2019-2\2019-2겜소공\11_2016180055\SIMPLEGAME\SIMPLEGAME\DEPENDENCIES\GLM\GTC\CONSTANTS.INL
E:\과제\게임공학\2019-2\2019-2겜소공\11_2016180055\SIMPLEGAME\SIMPLEGAME\DEPENDENCIES\GLM\GTC\MATRIX_TRANSFORM.INL
E:\과제\게임공학\2019-2\2019-2겜소공\11_2016180055\SIMPLEGAME\SIMPLEGAME\DEPENDENCIES\GLM\GTX\EULER_ANGLES.HPP
E:\과제\게임공학\2019-2\2019-2겜소공\11_2016180055\SIMPLEGAME\SIMPLEGAME\DEPENDENCIES\GLM\GTX\EULER_ANGLES.INL
E:\과제\게임공학\2019-2\2019-2겜소공\11_2016180055\SIMPLEGAME\SIMPLEGAME\DEPENDENCIES\GLM\GTX\COMPATIBILITY.HPP
E:\과제\게임공학\2019-2\2019-2겜소공\11_2016180055\SIMPLEGAME\SIMPLEGAME\DEPENDENCIES\GLM\GTC\QUATERNION.HPP
E:\과제\게임공학\2019-2\2019-2겜소공\11_2016180055\SIMPLEGAME\SIMPLEGAME\DEPENDENCIES\GLM\GTC\QUATERNION.INL
E:\과제\게임공학\2019-2\2019-2겜소공\11_2016180055\SIMPLEGAME\SIMPLEGAME\DEPENDENCIES\GLM\GTC\QUATERNION_SIMD.INL
E:\과제\게임공학\2019-2\2019-2겜소공\11_2016180055\SIMPLEGAME\SIMPLEGAME\DEPENDENCIES\GLM\GTX\COMPATIBILITY.INL
E:\과제\게임공학\2019-2\2019-2겜소공\11_2016180055\SIMPLEGAME\SIMPLEGAME\LOADPNG.H
^E:\과제\게임공학\2019-2\2019-2겜소공\11_2016180055\SIMPLEGAME\SIMPLEGAME\SIMPLEGAME.CPP
E:\과제\게임공학\2019-2\2019-2겜소공\11_2016180055\SIMPLEGAME\SIMPLEGAME\DEBUG\SIMPLEGAME.PCH
E:\논병아리\VC\TOOLS\MSVC\14.15.26726\INCLUDE\IOSTREAM
E:\논병아리\VC\TOOLS\MSVC\14.15.26726\INCLUDE\ISTREAM
E:\논병아리\VC\TOOLS\MSVC\14.15.26726\INCLUDE\OSTREAM
E:\논병아리\VC\TOOLS\MSVC\14.15.26726\INCLUDE\IOS
E:\논병아리\VC\TOOLS\MSVC\14.15.26726\INCLUDE\XLOCNUM
E:\논병아리\VC\TOOLS\MSVC\14.15.26726\INCLUDE\CLIMITS
E:\논병아리\VC\TOOLS\MSVC\14.15.26726\INCLUDE\YVALS.H
E:\논병아리\VC\TOOLS\MSVC\14.15.26726\INCLUDE\YVALS_CORE.H
E:\논병아리\VC\TOOLS\MSVC\14.15.26726\INCLUDE\XKEYCHECK.H
E:\논병아리\VC\TOOLS\MSVC\14.15.26726\INCLUDE\CRTDEFS.H
C:\PROGRAM FILES (X86)\WINDOWS KITS\10\INCLUDE\10.0.17134.0\UCRT\CRTDBG.H
E:\논병아리\VC\TOOLS\MSVC\14.15.26726\INCLUDE\VCRUNTIME_NEW_DEBUG.H
E:\논병아리\VC\TOOLS\MSVC\14.15.26726\INCLUDE\VCRUNTIME_NEW.H
E:\논병아리\VC\TOOLS\MSVC\14.15.26726\INCLUDE\USE_ANSI.H
E:\논병아리\VC\TOOLS\MSVC\14.15.26726\INCLUDE\LIMITS.H
E:\논병아리\VC\TOOLS\MSVC\14.15.26726\INCLUDE\CMATH
E:\논병아리\VC\TOOLS\MSVC\14.15.26726\INCLUDE\CSTDLIB
C:\PROGRAM FILES (X86)\WINDOWS KITS\10\INCLUDE\10.0.17134.0\UCRT\STDLIB.H
C:\PROGRAM FILES (X86)\WINDOWS KITS\10\INCLUDE\10.0.17134.0\UCRT\CORECRT_MALLOC.H
C:\PROGRAM FILES (X86)\WINDOWS KITS\10\INCLUDE\10.0.17134.0\UCRT\CORECRT_SEARCH.H
C:\PROGRAM FILES (X86)\WINDOWS KITS\10\INCLUDE\10.0.17134.0\UCRT\STDDEF.H
C:\PROGRAM FILES (X86)\WINDOWS KITS\10\INCLUDE\10.0.17134.0\UCRT\MATH.H
C:\PROGRAM FILES (X86)\WINDOWS KITS\10\INCLUDE\10.0.17134.0\UCRT\CORECRT_MATH.H
E:\논병아리\VC\TOOLS\MSVC\14.15.26726\INCLUDE\XTGMATH.H
E:\논병아리\VC\TOOLS\MSVC\14.15.26726\INCLUDE\XTR1COMMON
E:\논병아리\VC\TOOLS\MSVC\14.15.26726\INCLUDE\CSTDIO
E:\논병아리\VC\TOOLS\MSVC\14.15.26726\INCLUDE\STREAMBUF
E:\논병아리\VC\TOOLS\MSVC\14.15.26726\INCLUDE\XIOSBASE
E:\논병아리\VC\TOOLS\MSVC\14.15.26726\INCLUDE\XLOCALE
E:\논병아리\VC\TOOLS\MSVC\14.15.26726\INCLUDE\CSTRING
C:\PROGRAM FILES (X86)\WINDOWS KITS\10\INCLUDE\10.0.17134.0\UCRT\STRING.H
C:\PROGRAM FILES (X86)\WINDOWS KITS\10\INCLUDE\10.0.17134.0\UCRT\CORECRT_MEMORY.H
E:\논병아리\VC\TOOLS\MSVC\14.15.26726\INCLUDE\STDEXCEPT
E:\논병아리\VC\TOOLS\MSVC\14.15.26726\INCLUDE\EXCEPTION
E:\논병아리\VC\TOOLS\MSVC\14.15.26726\INCLUDE\TYPE_TRAITS
E:\논병아리\VC\TOOLS\MSVC\14.15.26726\INCLUDE\XSTDDEF
E:\논병아리\VC\TOOLS\MSVC\14.15.26726\INCLUDE\CSTDDEF
E:\논병아리\VC\TOOLS\MSVC\14.15.26726\INCLUDE\INITIALIZER_LIST
C:\PROGRAM FILES (X86)\WINDOWS KITS\10\INCLUDE\10.0.17134.0\UCRT\MALLOC.H
E:\논병아리\VC\TOOLS\MSVC\14.15.26726\INCLUDE\VCRUNTIME_EXCEPTION.H
E:\논병아리\VC\TOOLS\MSVC\14.15.26726\INCLUDE\EH.H
C:\PROGRAM FILES (X86)\WINDOWS KITS\10\INCLUDE\10.0.17134.0\UCRT\CORECRT_TERMINATE.H
E:\논병아리\VC\TOOLS\MSVC\14.15.26726\INCLUDE\XSTRING
E:\논병아리\VC\TOOLS\MSVC\14.15.26726\INCLUDE\XMEMORY0
E:\논병아리\VC\TOOLS\MSVC\14.15.26726\INCLUDE\CSTDINT
E:\논병아리\VC\TOOLS\MSVC\14.15.26726\INCLUDE\STDINT.H
E:\논병아리\VC\TOOLS\MSVC\14.15.26726\INCLUDE\LIMITS
E:\논병아리\VC\TOOLS\MSVC\14.15.26726\INCLUDE\YMATH.H
E:\논병아리\VC\TOOLS\MSVC\14.15.26726\INCLUDE\CFLOAT
C:\PROGRAM FILES (X86)\WINDOWS KITS\10\INCLUDE\10.0.17134.0\UCRT\FLOAT.H
E:\논병아리\VC\TOOLS\MSVC\14.15.26726\INCLUDE\CWCHAR
E:\논병아리\VC\TOOLS\MSVC\14.15.26726\INCLUDE\NEW
E:\논병아리\VC\TOOLS\MSVC\14.15.26726\INCLUDE\XUTILITY
E:\논병아리\VC\TOOLS\MSVC\14.15.26726\INCLUDE\UTILITY
E:\논병아리\VC\TOOLS\MSVC\14.15.26726\INCLUDE\IOSFWD
E:\논병아리\VC\TOOLS\MSVC\14.15.26726\INCLUDE\XATOMIC0.H
E:\논병아리\VC\TOOLS\MSVC\14.15.26726\INCLUDE\INTRIN0.H
E:\논병아리\VC\TOOLS\MSVC\14.15.26726\INCLUDE\TYPEINFO
E:\논병아리\VC\TOOLS\MSVC\14.15.26726\INCLUDE\VCRUNTIME_TYPEINFO.H
E:\논병아리\VC\TOOLS\MSVC\14.15.26726\INCLUDE\XLOCINFO
E:\논병아리\VC\TOOLS\MSVC\14.15.26726\INCLUDE\XLOCINFO.H
C:\PROGRAM FILES (X86)\WINDOWS KITS\10\INCLUDE\10.0.17134.0\UCRT\CTYPE.H
C:\PROGRAM FILES (X86)\WINDOWS KITS\10\INCLUDE\10.0.17134.0\UCRT\LOCALE.H
E:\논병아리\VC\TOOLS\MSVC\14.15.26726\INCLUDE\MEMORY
E:\논병아리\VC\TOOLS\MSVC\14.15.26726\INCLUDE\XMEMORY
E:\논병아리\VC\TOOLS\MSVC\14.15.26726\INCLUDE\XFACET
E:\논병아리\VC\TOOLS\MSVC\14.15.26726\INCLUDE\SYSTEM_ERROR
E:\논병아리\VC\TOOLS\MSVC\14.15.26726\INCLUDE\CERRNO
E:\논병아리\VC\TOOLS\MSVC\14.15.26726\INCLUDE\XCALL_ONCE.H
E:\논병아리\VC\TOOLS\MSVC\14.15.26726\INCLUDE\XERRC.H
C:\PROGRAM FILES (X86)\WINDOWS KITS\10\INCLUDE\10.0.17134.0\UCRT\SHARE.H
E:\과제\게임공학\2019-2\2019-2겜소공\11_2016180055\SIMPLEGAME\SIMPLEGAME\DEPENDENCIES\GLEW.H
C:\PROGRAM FILES (X86)\WINDOWS KITS\10\INCLUDE\10.0.17134.0\UM\GL\GLU.H
C:\PROGRAM FILES (X86)\WINDOWS KITS\10\INCLUDE\10.0.17134.0\SHARED\WINAPIFAMILY.H
C:\PROGRAM FILES (X86)\WINDOWS KITS\10\INCLUDE\10.0.17134.0\SHARED\WINPACKAGEFAMILY.H
C:\PROGRAM FILES (X86)\WINDOWS KITS\10\INCLUDE\10.0.17134.0\UM\GL\GL.H
E:\과제\게임공학\2019-2\2019-2겜소공\11_2016180055\SIMPLEGAME\SIMPLEGAME\DEPENDENCIES\FREEGLUT.H
E:\과제\게임공학\2019-2\2019-2겜소공\11_2016180055\SIMPLEGAME\SIMPLEGAME\DEPENDENCIES\FREEGLUT_STD.H
C:\PROGRAM FILES (X86)\WINDOWS KITS\10\INCLUDE\10.0.17134.0\UM\WINDOWS.H
E:\논병아리\VC\TOOLS\MSVC\14.15.26726\INCLUDE\EXCPT.H
E:\논병아리\VC\TOOLS\MSVC\14.15.26726\INCLUDE\STDARG.H
C:\PROGRAM FILES (X86)\WINDOWS KITS\10\INCLUDE\10.0.17134.0\SHARED\WINDEF.H
C:\PROGRAM FILES (X86)\WINDOWS KITS\10\INCLUDE\10.0.17134.0\SHARED\MINWINDEF.H
C:\PROGRAM FILES (X86)\WINDOWS KITS\10\INCLUDE\10.0.17134.0\SHARED\SPECSTRINGS.H
C:\PROGRAM FILES (X86)\WINDOWS KITS\10\INCLUDE\10.0.17134.0\SHARED\SPECSTRINGS_STRICT.H
C:\PROGRAM FILES (X86)\WINDOWS KITS\10\INCLUDE\10.0.17134.0\SHARED\SPECSTRINGS_UNDEF.H
C:\PROGRAM FILES (X86)\WINDOWS KITS\10\INCLUDE\10.0.17134.0\SHARED\DRIVERSPECS.H
C:\PROGRAM FILES (X86)\WINDOWS KITS\10\INCLUDE\10.0.17134.0\SHARED\SDV_DRIVERSPECS.H
C:\PROGRAM FILES (X86)\WINDOWS KITS\10\INCLUDE\10.0.17134.0\UM\WINNT.H
C:\PROGRAM FILES (X86)\WINDOWS KITS\10\INCLUDE\10.0.17134.0\SHARED\KERNELSPECS.H
C:\PROGRAM FILES (X86)\WINDOWS KITS\10\INCLUDE\10.0.17134.0\SHARED\BASETSD.H
C:\PROGRAM FILES (X86)\WINDOWS KITS\10\INCLUDE\10.0.17134.0\SHARED\GUIDDEF.H
C:\PROGRAM FILES (X86)\WINDOWS KITS\10\INCLUDE\10.0.17134.0\SHARED\PSHPACK4.H
C:\PROGRAM FILES (X86)\WINDOWS KITS\10\INCLUDE\10.0.17134.0\SHARED\POPPACK.H
C:\PROGRAM FILES (X86)\WINDOWS KITS\10\INCLUDE\10.0.17134.0\SHARED\PSHPACK2.H
C:\PROGRAM FILES (X86)\WINDOWS KITS\10\INCLUDE\10.0.17134.0\SHARED\PSHPACK8.H
C:\PROGRAM FILES (X86)\WINDOWS KITS\10\INCLUDE\10.0.17134.0\SHARED\PSHPACK1.H
C:\PROGRAM FILES (X86)\WINDOWS KITS\10\INCLUDE\10.0.17134.0\SHARED\APISET.H
C:\PROGRAM FILES (X86)\WINDOWS KITS\10\INCLUDE\10.0.17134.0\SHARED\KTMTYPES.H
C:\PROGRAM FILES (X86)\WINDOWS KITS\10\INCLUDE\10.0.17134.0\UM\WINBASE.H
C:\PROGRAM FILES (X86)\WINDOWS KITS\10\INCLUDE\10.0.17134.0\SHARED\APISETCCONV.H
C:\PROGRAM FILES (X86)\WINDOWS KITS\10\INCLUDE\10.0.17134.0\UM\MINWINBASE.H
C:\PROGRAM FILES (X86)\WINDOWS KITS\10\INCLUDE\10.0.17134.0\UM\PROCESSENV.H
C:\PROGRAM FILES (X86)\WINDOWS KITS\10\INCLUDE\10.0.17134.0\UM\FILEAPI.H
C:\PROGRAM FILES (X86)\WINDOWS KITS\10\INCLUDE\10.0.17134.0\UM\DEBUGAPI.H
C:\PROGRAM FILES (X86)\WINDOWS KITS\10\INCLUDE\10.0.17134.0\UM\UTILAPISET.H
C:\PROGRAM FILES (X86)\WINDOWS KITS\10\INCLUDE\10.0.17134.0\UM\HANDLEAPI.H
C:\PROGRAM FILES (X86)\WINDOWS KITS\10\INCLUDE\10.0.17134.0\UM\ERRHANDLINGAPI.H
C:\PROGRAM FILES (X86)\WINDOWS KITS\10\INCLUDE\10.0.17134.0\UM\FIBERSAPI.H
C:\PROGRAM FILES (X86)\WINDOWS KITS\10\INCLUDE\10.0.17134.0\UM\NAMEDPIPEAPI.H
C:\PROGRAM FILES (X86)\WINDOWS KITS\10\INCLUDE\10.0.17134.0\UM\PROFILEAPI.H
C:\PROGRAM FILES (X86)\WINDOWS KITS\10\INCLUDE\10.0.17134.0\UM\HEAPAPI.H
C:\PROGRAM FILES (X86)\WINDOWS KITS\10\INCLUDE\10.0.17134.0\UM\IOAPISET.H
C:\PROGRAM FILES (X86)\WINDOWS KITS\10\INCLUDE\10.0.17134.0\UM\SYNCHAPI.H
C:\PROGRAM FILES (X86)\WINDOWS KITS\10\INCLUDE\10.0.17134.0\UM\INTERLOCKEDAPI.H
C:\PROGRAM FILES (X86)\WINDOWS KITS\10\INCLUDE\10.0.17134.0\UM\PROCESSTHREADSAPI.H
C:\PROGRAM FILES (X86)\WINDOWS KITS\10\INCLUDE\10.0.17134.0\UM\SYSINFOAPI.H
C:\PROGRAM FILES (X86)\WINDOWS KITS\10\INCLUDE\10.0.17134.0\UM\MEMORYAPI.H
C:\PROGRAM FILES (X86)\WINDOWS KITS\10\INCLUDE\10.0.17134.0\UM\ENCLAVEAPI.H
C:\PROGRAM FILES (X86)\WINDOWS KITS\10\INCLUDE\10.0.17134.0\UM\THREADPOOLLEGACYAPISET.H
C:\PROGRAM FILES (X86)\WINDOWS KITS\10\INCLUDE\10.0.17134.0\UM\THREADPOOLAPISET.H
C:\PROGRAM FILES (X86)\WINDOWS KITS\10\INCLUDE\10.0.17134.0\UM\JOBAPI.H
C:\PROGRAM FILES (X86)\WINDOWS KITS\10\INCLUDE\10.0.17134.0\UM\JOBAPI2.H
C:\PROGRAM FILES (X86)\WINDOWS KITS\10\INCLUDE\10.0.17134.0\UM\WOW64APISET.H
C:\PROGRAM FILES (X86)\WINDOWS KITS\10\INCLUDE\10.0.17134.0\UM\LIBLOADERAPI.H
C:\PROGRAM FILES (X86)\WINDOWS KITS\10\INCLUDE\10.0.17134.0\UM\SECURITYBASEAPI.H
C:\PROGRAM FILES (X86)\WINDOWS KITS\10\INCLUDE\10.0.17134.0\UM\NAMESPACEAPI.H
C:\PROGRAM FILES (X86)\WINDOWS KITS\10\INCLUDE\10.0.17134.0\UM\SYSTEMTOPOLOGYAPI.H
C:\PROGRAM FILES (X86)\WINDOWS KITS\10\INCLUDE\10.0.17134.0\UM\PROCESSTOPOLOGYAPI.H
C:\PROGRAM FILES (X86)\WINDOWS KITS\10\INCLUDE\10.0.17134.0\UM\SECURITYAPPCONTAINER.H
C:\PROGRAM FILES (X86)\WINDOWS KITS\10\INCLUDE\10.0.17134.0\UM\REALTIMEAPISET.H
C:\PROGRAM FILES (X86)\WINDOWS KITS\10\INCLUDE\10.0.17134.0\SHARED\WINERROR.H
C:\PROGRAM FILES (X86)\WINDOWS KITS\10\INCLUDE\10.0.17134.0\UM\TIMEZONEAPI.H
C:\PROGRAM FILES (X86)\WINDOWS KITS\10\INCLUDE\10.0.17134.0\UM\WINGDI.H
C:\PROGRAM FILES (X86)\WINDOWS KITS\10\INCLUDE\10.0.17134.0\UM\WINUSER.H
C:\PROGRAM FILES (X86)\WINDOWS KITS\10\INCLUDE\10.0.17134.0\SHARED\TVOUT.H
C:\PROGRAM FILES (X86)\WINDOWS KITS\10\INCLUDE\10.0.17134.0\UM\WINNLS.H
C:\PROGRAM FILES (X86)\WINDOWS KITS\10\INCLUDE\10.0.17134.0\UM\DATETIMEAPI.H
C:\PROGRAM FILES (X86)\WINDOWS KITS\10\INCLUDE\10.0.17134.0\UM\STRINGAPISET.H
C:\PROGRAM FILES (X86)\WINDOWS KITS\10\INCLUDE\10.0.17134.0\UM\WINCON.H
C:\PROGRAM FILES (X86)\WINDOWS KITS\10\INCLUDE\10.0.17134.0\UM\WINCONTYPES.H
C:\PROGRAM FILES (X86)\WINDOWS KITS\10\INCLUDE\10.0.17134.0\UM\CONSOLEAPI.H
C:\PROGRAM FILES (X86)\WINDOWS KITS\10\INCLUDE\10.0.17134.0\UM\CONSOLEAPI2.H
C:\PROGRAM FILES (X86)\WINDOWS KITS\10\INCLUDE\10.0.17134.0\UM\CONSOLEAPI3.H
C:\PROGRAM FILES (X86)\WINDOWS KITS\10\INCLUDE\10.0.17134.0\UM\WINVER.H
C:\PROGRAM FILES (X86)\WINDOWS KITS\10\INCLUDE\10.0.17134.0\UM\VERRSRC.H
C:\PROGRAM FILES (X86)\WINDOWS KITS\10\INCLUDE\10.0.17134.0\UM\WINREG.H
C:\PROGRAM FILES (X86)\WINDOWS KITS\10\INCLUDE\10.0.17134.0\UM\REASON.H
C:\PROGRAM FILES (X86)\WINDOWS KITS\10\INCLUDE\10.0.17134.0\UM\WINNETWK.H
C:\PROGRAM FILES (X86)\WINDOWS KITS\10\INCLUDE\10.0.17134.0\SHARED\WNNC.H
C:\PROGRAM FILES (X86)\WINDOWS KITS\10\INCLUDE\10.0.17134.0\SHARED\STRALIGN.H
C:\PROGRAM FILES (X86)\WINDOWS KITS\10\INCLUDE\10.0.17134.0\UM\WINSVC.H
C:\PROGRAM FILES (X86)\WINDOWS KITS\10\INCLUDE\10.0.17134.0\UM\MCX.H
C:\PROGRAM FILES (X86)\WINDOWS KITS\10\INCLUDE\10.0.17134.0\UM\IMM.H
C:\PROGRAM FILES (X86)\WINDOWS KITS\10\INCLUDE\10.0.17134.0\UM\IME_CMODES.H
E:\과제\게임공학\2019-2\2019-2겜소공\11_2016180055\SIMPLEGAME\SIMPLEGAME\DEPENDENCIES\FREEGLUT_EXT.H
E:\과제\게임공학\2019-2\2019-2겜소공\11_2016180055\SIMPLEGAME\SIMPLEGAME\SCNMGR.H
E:\논병아리\VC\TOOLS\MSVC\14.15.26726\INCLUDE\STRING
E:\논병아리\VC\TOOLS\MSVC\14.15.26726\INCLUDE\XSTRING_INSERT.H
E:\논병아리\VC\TOOLS\MSVC\14.15.26726\INCLUDE\FSTREAM
E:\과제\게임공학\2019-2\2019-2겜소공\11_2016180055\SIMPLEGAME\SIMPLEGAME\RENDERER.H
E:\논병아리\VC\TOOLS\MSVC\14.15.26726\INCLUDE\VECTOR
C:\PROGRAM FILES (X86)\WINDOWS KITS\10\INCLUDE\10.0.17134.0\UCRT\ASSERT.H
E:\과제\게임공학\2019-2\2019-2겜소공\11_2016180055\SIMPLEGAME\SIMPLEGAME\DEPENDENCIES\GLM\GLM.HPP
E:\과제\게임공학\2019-2\2019-2겜소공\11_2016180055\SIMPLEGAME\SIMPLEGAME\DEPENDENCIES\GLM\DETAIL\_FIXES.HPP
E:\논병아리\VC\TOOLS\MSVC\14.15.26726\INCLUDE\CASSERT
E:\과제\게임공학\2019-2\2019-2겜소공\11_2016180055\SIMPLEGAME\SIMPLEGAME\DEPENDENCIES\GLM\FWD.HPP
E:\과제\게임공학\2019-2\2019-2겜소공\11_2016180055\SIMPLEGAME\SIMPLEGAME\DEPENDENCIES\GLM\DETAIL\TYPE_INT.HPP
E:\과제\게임공학\2019-2\2019-2겜소공\11_2016180055\SIMPLEGAME\SIMPLEGAME\DEPENDENCIES\GLM\DETAIL\SETUP.HPP
E:\과제\게임공학\2019-2\2019-2겜소공\11_2016180055\SIMPLEGAME\SIMPLEGAME\DEPENDENCIES\GLM\SIMD\PLATFORM.H
E:\논병아리\VC\TOOLS\MSVC\14.15.26726\INCLUDE\EMMINTRIN.H
E:\논병아리\VC\TOOLS\MSVC\14.15.26726\INCLUDE\XMMINTRIN.H
E:\논병아리\VC\TOOLS\MSVC\14.15.26726\INCLUDE\MMINTRIN.H
E:\과제\게임공학\2019-2\2019-2겜소공\11_2016180055\SIMPLEGAME\SIMPLEGAME\DEPENDENCIES\GLM\DETAIL\TYPE_FLOAT.HPP
E:\과제\게임공학\2019-2\2019-2겜소공\11_2016180055\SIMPLEGAME\SIMPLEGAME\DEPENDENCIES\GLM\DETAIL\TYPE_VEC.HPP
E:\과제\게임공학\2019-2\2019-2겜소공\11_2016180055\SIMPLEGAME\SIMPLEGAME\DEPENDENCIES\GLM\DETAIL\PRECISION.HPP
E:\과제\게임공학\2019-2\2019-2겜소공\11_2016180055\SIMPLEGAME\SIMPLEGAME\DEPENDENCIES\GLM\DETAIL\TYPE_MAT.HPP
E:\과제\게임공학\2019-2\2019-2겜소공\11_2016180055\SIMPLEGAME\SIMPLEGAME\DEPENDENCIES\GLM\VEC2.HPP
E:\과제\게임공학\2019-2\2019-2겜소공\11_2016180055\SIMPLEGAME\SIMPLEGAME\DEPENDENCIES\GLM\DETAIL\TYPE_VEC2.HPP
E:\과제\게임공학\2019-2\2019-2겜소공\11_2016180055\SIMPLEGAME\SIMPLEGAME\DEPENDENCIES\GLM\DETAIL\TYPE_VEC2.INL
E:\과제\게임공학\2019-2\2019-2겜소공\11_2016180055\SIMPLEGAME\SIMPLEGAME\DEPENDENCIES\GLM\VEC3.HPP
E:\과제\게임공학\2019-2\2019-2겜소공\11_2016180055\SIMPLEGAME\SIMPLEGAME\DEPENDENCIES\GLM\DETAIL\TYPE_VEC3.HPP
E:\과제\게임공학\2019-2\2019-2겜소공\11_2016180055\SIMPLEGAME\SIMPLEGAME\DEPENDENCIES\GLM\DETAIL\TYPE_VEC3.INL
E:\과제\게임공학\2019-2\2019-2겜소공\11_2016180055\SIMPLEGAME\SIMPLEGAME\DEPENDENCIES\GLM\VEC4.HPP
E:\과제\게임공학\2019-2\2019-2겜소공\11_2016180055\SIMPLEGAME\SIMPLEGAME\DEPENDENCIES\GLM\DETAIL\TYPE_VEC4.HPP
E:\과제\게임공학\2019-2\2019-2겜소공\11_2016180055\SIMPLEGAME\SIMPLEGAME\DEPENDENCIES\GLM\DETAIL\TYPE_VEC4.INL
E:\과제\게임공학\2019-2\2019-2겜소공\11_2016180055\SIMPLEGAME\SIMPLEGAME\DEPENDENCIES\GLM\DETAIL\TYPE_VEC4_SIMD.INL
E:\과제\게임공학\2019-2\2019-2겜소공\11_2016180055\SIMPLEGAME\SIMPLEGAME\DEPENDENCIES\GLM\MAT2X2.HPP
E:\과제\게임공학\2019-2\2019-2겜소공\11_2016180055\SIMPLEGAME\SIMPLEGAME\DEPENDENCIES\GLM\DETAIL\TYPE_MAT2X2.HPP
E:\과제\게임공학\2019-2\2019-2겜소공\11_2016180055\SIMPLEGAME\SIMPLEGAME\DEPENDENCIES\GLM\DETAIL\TYPE_MAT2X2.INL
E:\과제\게임공학\2019-2\2019-2겜소공\11_2016180055\SIMPLEGAME\SIMPLEGAME\DEPENDENCIES\GLM\DETAIL\FUNC_MATRIX.HPP
E:\과제\게임공학\2019-2\2019-2겜소공\11_2016180055\SIMPLEGAME\SIMPLEGAME\DEPENDENCIES\GLM\MAT2X3.HPP
E:\과제\게임공학\2019-2\2019-2겜소공\11_2016180055\SIMPLEGAME\SIMPLEGAME\DEPENDENCIES\GLM\DETAIL\TYPE_MAT2X3.HPP
E:\과제\게임공학\2019-2\2019-2겜소공\11_2016180055\SIMPLEGAME\SIMPLEGAME\DEPENDENCIES\GLM\DETAIL\TYPE_MAT2X3.INL
E:\과제\게임공학\2019-2\2019-2겜소공\11_2016180055\SIMPLEGAME\SIMPLEGAME\DEPENDENCIES\GLM\MAT2X4.HPP
E:\과제\게임공학\2019-2\2019-2겜소공\11_2016180055\SIMPLEGAME\SIMPLEGAME\DEPENDENCIES\GLM\DETAIL\TYPE_MAT2X4.HPP
E:\과제\게임공학\2019-2\2019-2겜소공\11_2016180055\SIMPLEGAME\SIMPLEGAME\DEPENDENCIES\GLM\DETAIL\TYPE_MAT2X4.INL
E:\과제\게임공학\2019-2\2019-2겜소공\11_2016180055\SIMPLEGAME\SIMPLEGAME\DEPENDENCIES\GLM\MAT3X2.HPP
E:\과제\게임공학\2019-2\2019-2겜소공\11_2016180055\SIMPLEGAME\SIMPLEGAME\DEPENDENCIES\GLM\DETAIL\TYPE_MAT3X2.HPP
E:\과제\게임공학\2019-2\2019-2겜소공\11_2016180055\SIMPLEGAME\SIMPLEGAME\DEPENDENCIES\GLM\DETAIL\TYPE_MAT3X2.INL
E:\과제\게임공학\2019-2\2019-2겜소공\11_2016180055\SIMPLEGAME\SIMPLEGAME\DEPENDENCIES\GLM\MAT3X3.HPP
E:\과제\게임공학\2019-2\2019-2겜소공\11_2016180055\SIMPLEGAME\SIMPLEGAME\DEPENDENCIES\GLM\DETAIL\TYPE_MAT3X3.HPP
E:\과제\게임공학\2019-2\2019-2겜소공\11_2016180055\SIMPLEGAME\SIMPLEGAME\DEPENDENCIES\GLM\DETAIL\TYPE_MAT3X3.INL
E:\과제\게임공학\2019-2\2019-2겜소공\11_2016180055\SIMPLEGAME\SIMPLEGAME\DEPENDENCIES\GLM\MAT3X4.HPP
E:\과제\게임공학\2019-2\2019-2겜소공\11_2016180055\SIMPLEGAME\SIMPLEGAME\DEPENDENCIES\GLM\DETAIL\TYPE_MAT3X4.HPP
E:\과제\게임공학\2019-2\2019-2겜소공\11_2016180055\SIMPLEGAME\SIMPLEGAME\DEPENDENCIES\GLM\DETAIL\TYPE_MAT3X4.INL
E:\과제\게임공학\2019-2\2019-2겜소공\11_2016180055\SIMPLEGAME\SIMPLEGAME\DEPENDENCIES\GLM\MAT4X2.HPP
E:\과제\게임공학\2019-2\2019-2겜소공\11_2016180055\SIMPLEGAME\SIMPLEGAME\DEPENDENCIES\GLM\DETAIL\TYPE_MAT4X2.HPP
E:\과제\게임공학\2019-2\2019-2겜소공\11_2016180055\SIMPLEGAME\SIMPLEGAME\DEPENDENCIES\GLM\DETAIL\TYPE_MAT4X2.INL
E:\과제\게임공학\2019-2\2019-2겜소공\11_2016180055\SIMPLEGAME\SIMPLEGAME\DEPENDENCIES\GLM\MAT4X3.HPP
E:\과제\게임공학\2019-2\2019-2겜소공\11_2016180055\SIMPLEGAME\SIMPLEGAME\DEPENDENCIES\GLM\DETAIL\TYPE_MAT4X3.HPP
E:\과제\게임공학\2019-2\2019-2겜소공\11_2016180055\SIMPLEGAME\SIMPLEGAME\DEPENDENCIES\GLM\DETAIL\TYPE_MAT4X3.INL
E:\과제\게임공학\2019-2\2019-2겜소공\11_2016180055\SIMPLEGAME\SIMPLEGAME\DEPENDENCIES\GLM\MAT4X4.HPP
E:\과제\게임공학\2019-2\2019-2겜소공\11_2016180055\SIMPLEGAME\SIMPLEGAME\DEPENDENCIES\GLM\DETAIL\TYPE_MAT4X4.HPP
E:\과제\게임공학\2019-2\2019-2겜소공\11_2016180055\SIMPLEGAME\SIMPLEGAME\DEPENDENCIES\GLM\DETAIL\TYPE_MAT4X4.INL
E:\과제\게임공학\2019-2\2019-2겜소공\11_2016180055\SIMPLEGAME\SIMPLEGAME\DEPENDENCIES\GLM\DETAIL\TYPE_MAT4X4_SIMD.INL
E:\과제\게임공학\2019-2\2019-2겜소공\11_2016180055\SIMPLEGAME\SIMPLEGAME\DEPENDENCIES\GLM\DETAIL\FUNC_MATRIX.INL
E:\과제\게임공학\2019-2\2019-2겜소공\11_2016180055\SIMPLEGAME\SIMPLEGAME\DEPENDENCIES\GLM\GEOMETRIC.HPP
E:\과제\게임공학\2019-2\2019-2겜소공\11_2016180055\SIMPLEGAME\SIMPLEGAME\DEPENDENCIES\GLM\DETAIL\FUNC_GEOMETRIC.HPP
E:\과제\게임공학\2019-2\2019-2겜소공\11_2016180055\SIMPLEGAME\SIMPLEGAME\DEPENDENCIES\GLM\DETAIL\FUNC_GEOMETRIC.INL
E:\과제\게임공학\2019-2\2019-2겜소공\11_2016180055\SIMPLEGAME\SIMPLEGAME\DEPENDENCIES\GLM\DETAIL\FUNC_EXPONENTIAL.HPP
E:\과제\게임공학\2019-2\2019-2겜소공\11_2016180055\SIMPLEGAME\SIMPLEGAME\DEPENDENCIES\GLM\DETAIL\TYPE_VEC1.HPP
E:\과제\게임공학\2019-2\2019-2겜소공\11_2016180055\SIMPLEGAME\SIMPLEGAME\DEPENDENCIES\GLM\DETAIL\TYPE_VEC1.INL
E:\과제\게임공학\2019-2\2019-2겜소공\11_2016180055\SIMPLEGAME\SIMPLEGAME\DEPENDENCIES\GLM\DETAIL\FUNC_EXPONENTIAL.INL
E:\과제\게임공학\2019-2\2019-2겜소공\11_2016180055\SIMPLEGAME\SIMPLEGAME\DEPENDENCIES\GLM\DETAIL\FUNC_VECTOR_RELATIONAL.HPP
E:\과제\게임공학\2019-2\2019-2겜소공\11_2016180055\SIMPLEGAME\SIMPLEGAME\DEPENDENCIES\GLM\DETAIL\FUNC_VECTOR_RELATIONAL.INL
E:\과제\게임공학\2019-2\2019-2겜소공\11_2016180055\SIMPLEGAME\SIMPLEGAME\DEPENDENCIES\GLM\DETAIL\FUNC_VECTOR_RELATIONAL_SIMD.INL
E:\과제\게임공학\2019-2\2019-2겜소공\11_2016180055\SIMPLEGAME\SIMPLEGAME\DEPENDENCIES\GLM\DETAIL\_VECTORIZE.HPP
E:\과제\게임공학\2019-2\2019-2겜소공\11_2016180055\SIMPLEGAME\SIMPLEGAME\DEPENDENCIES\GLM\DETAIL\FUNC_EXPONENTIAL_SIMD.INL
E:\과제\게임공학\2019-2\2019-2겜소공\11_2016180055\SIMPLEGAME\SIMPLEGAME\DEPENDENCIES\GLM\SIMD\EXPONENTIAL.H
E:\과제\게임공학\2019-2\2019-2겜소공\11_2016180055\SIMPLEGAME\SIMPLEGAME\DEPENDENCIES\GLM\DETAIL\FUNC_COMMON.HPP
E:\과제\게임공학\2019-2\2019-2겜소공\11_2016180055\SIMPLEGAME\SIMPLEGAME\DEPENDENCIES\GLM\DETAIL\FUNC_COMMON.INL
E:\과제\게임공학\2019-2\2019-2겜소공\11_2016180055\SIMPLEGAME\SIMPLEGAME\DEPENDENCIES\GLM\DETAIL\FUNC_COMMON_SIMD.INL
E:\과제\게임공학\2019-2\2019-2겜소공\11_2016180055\SIMPLEGAME\SIMPLEGAME\DEPENDENCIES\GLM\SIMD\COMMON.H
E:\논병아리\VC\TOOLS\MSVC\14.15.26726\INCLUDE\IMMINTRIN.H
E:\논병아리\VC\TOOLS\MSVC\14.15.26726\INCLUDE\WMMINTRIN.H
E:\논병아리\VC\TOOLS\MSVC\14.15.26726\INCLUDE\NMMINTRIN.H
E:\논병아리\VC\TOOLS\MSVC\14.15.26726\INCLUDE\SMMINTRIN.H
E:\논병아리\VC\TOOLS\MSVC\14.15.26726\INCLUDE\TMMINTRIN.H
E:\논병아리\VC\TOOLS\MSVC\14.15.26726\INCLUDE\PMMINTRIN.H
E:\논병아리\VC\TOOLS\MSVC\14.15.26726\INCLUDE\ZMMINTRIN.H
E:\과제\게임공학\2019-2\2019-2겜소공\11_2016180055\SIMPLEGAME\SIMPLEGAME\DEPENDENCIES\GLM\DETAIL\FUNC_GEOMETRIC_SIMD.INL
E:\과제\게임공학\2019-2\2019-2겜소공\11_2016180055\SIMPLEGAME\SIMPLEGAME\DEPENDENCIES\GLM\SIMD\GEOMETRIC.H
E:\과제\게임공학\2019-2\2019-2겜소공\11_2016180055\SIMPLEGAME\SIMPLEGAME\DEPENDENCIES\GLM\DETAIL\FUNC_MATRIX_SIMD.INL
E:\과제\게임공학\2019-2\2019-2겜소공\11_2016180055\SIMPLEGAME\SIMPLEGAME\DEPENDENCIES\GLM\SIMD\MATRIX.H
E:\과제\게임공학\2019-2\2019-2겜소공\11_2016180055\SIMPLEGAME\SIMPLEGAME\DEPENDENCIES\GLM\TRIGONOMETRIC.HPP
E:\과제\게임공학\2019-2\2019-2겜소공\11_2016180055\SIMPLEGAME\SIMPLEGAME\DEPENDENCIES\GLM\DETAIL\FUNC_TRIGONOMETRIC.HPP
E:\과제\게임공학\2019-2\2019-2겜소공\11_2016180055\SIMPLEGAME\SIMPLEGAME\DEPENDENCIES\GLM\DETAIL\FUNC_TRIGONOMETRIC.INL
E:\과제\게임공학\2019-2\2019-2겜소공\11_2016180055\SIMPLEGAME\SIMPLEGAME\DEPENDENCIES\GLM\DETAIL\FUNC_TRIGONOMETRIC_SIMD.INL
E:\과제\게임공학\2019-2\2019-2겜소공\11_2016180055\SIMPLEGAME\SIMPLEGAME\DEPENDENCIES\GLM\EXPONENTIAL.HPP
E:\과제\게임공학\2019-2\2019-2겜소공\11_2016180055\SIMPLEGAME\SIMPLEGAME\DEPENDENCIES\GLM\COMMON.HPP
E:\과제\게임공학\2019-2\2019-2겜소공\11_2016180055\SIMPLEGAME\SIMPLEGAME\DEPENDENCIES\GLM\PACKING.HPP
E:\과제\게임공학\2019-2\2019-2겜소공\11_2016180055\SIMPLEGAME\SIMPLEGAME\DEPENDENCIES\GLM\DETAIL\FUNC_PACKING.HPP
E:\과제\게임공학\2019-2\2019-2겜소공\11_2016180055\SIMPLEGAME\SIMPLEGAME\DEPENDENCIES\GLM\DETAIL\FUNC_PACKING.INL
E:\과제\게임공학\2019-2\2019-2겜소공\11_2016180055\SIMPLEGAME\SIMPLEGAME\DEPENDENCIES\GLM\DETAIL\TYPE_HALF.HPP
E:\과제\게임공학\2019-2\2019-2겜소공\11_2016180055\SIMPLEGAME\SIMPLEGAME\DEPENDENCIES\GLM\DETAIL\TYPE_HALF.INL
E:\과제\게임공학\2019-2\2019-2겜소공\11_2016180055\SIMPLEGAME\SIMPLEGAME\DEPENDENCIES\GLM\DETAIL\FUNC_PACKING_SIMD.INL
E:\과제\게임공학\2019-2\2019-2겜소공\11_2016180055\SIMPLEGAME\SIMPLEGAME\DEPENDENCIES\GLM\MATRIX.HPP
E:\과제\게임공학\2019-2\2019-2겜소공\11_2016180055\SIMPLEGAME\SIMPLEGAME\DEPENDENCIES\GLM\VECTOR_RELATIONAL.HPP
E:\과제\게임공학\2019-2\2019-2겜소공\11_2016180055\SIMPLEGAME\SIMPLEGAME\DEPENDENCIES\GLM\INTEGER.HPP
E:\과제\게임공학\2019-2\2019-2겜소공\11_2016180055\SIMPLEGAME\SIMPLEGAME\DEPENDENCIES\GLM\DETAIL\FUNC_INTEGER.HPP
E:\과제\게임공학\2019-2\2019-2겜소공\11_2016180055\SIMPLEGAME\SIMPLEGAME\DEPENDENCIES\GLM\DETAIL\FUNC_INTEGER.INL
E:\논병아리\VC\TOOLS\MSVC\14.15.26726\INCLUDE\INTRIN.H
E:\논병아리\VC\TOOLS\MSVC\14.15.26726\INCLUDE\SETJMP.H
E:\논병아리\VC\TOOLS\MSVC\14.15.26726\INCLUDE\AMMINTRIN.H
E:\논병아리\VC\TOOLS\MSVC\14.15.26726\INCLUDE\MM3DNOW.H
E:\과제\게임공학\2019-2\2019-2겜소공\11_2016180055\SIMPLEGAME\SIMPLEGAME\DEPENDENCIES\GLM\DETAIL\FUNC_INTEGER_SIMD.INL
E:\과제\게임공학\2019-2\2019-2겜소공\11_2016180055\SIMPLEGAME\SIMPLEGAME\DEPENDENCIES\GLM\SIMD\INTEGER.H
E:\과제\게임공학\2019-2\2019-2겜소공\11_2016180055\SIMPLEGAME\SIMPLEGAME\DEPENDENCIES\GLM\GTC\MATRIX_TRANSFORM.HPP
E:\과제\게임공학\2019-2\2019-2겜소공\11_2016180055\SIMPLEGAME\SIMPLEGAME\DEPENDENCIES\GLM\GTC\CONSTANTS.HPP
E:\과제\게임공학\2019-2\2019-2겜소공\11_2016180055\SIMPLEGAME\SIMPLEGAME\DEPENDENCIES\GLM\GTC\CONSTANTS.INL
E:\과제\게임공학\2019-2\2019-2겜소공\11_2016180055\SIMPLEGAME\SIMPLEGAME\DEPENDENCIES\GLM\GTC\MATRIX_TRANSFORM.INL
E:\과제\게임공학\2019-2\2019-2겜소공\11_2016180055\SIMPLEGAME\SIMPLEGAME\DEPENDENCIES\GLM\GTX\EULER_ANGLES.HPP
E:\과제\게임공학\2019-2\2019-2겜소공\11_2016180055\SIMPLEGAME\SIMPLEGAME\DEPENDENCIES\GLM\GTX\EULER_ANGLES.INL
E:\과제\게임공학\2019-2\2019-2겜소공\11_2016180055\SIMPLEGAME\SIMPLEGAME\DEPENDENCIES\GLM\GTX\COMPATIBILITY.HPP
E:\과제\게임공학\2019-2\2019-2겜소공\11_2016180055\SIMPLEGAME\SIMPLEGAME\DEPENDENCIES\GLM\GTC\QUATERNION.HPP
E:\과제\게임공학\2019-2\2019-2겜소공\11_2016180055\SIMPLEGAME\SIMPLEGAME\DEPENDENCIES\GLM\GTC\QUATERNION.INL
E:\과제\게임공학\2019-2\2019-2겜소공\11_2016180055\SIMPLEGAME\SIMPLEGAME\DEPENDENCIES\GLM\GTC\QUATERNION_SIMD.INL
E:\과제\게임공학\2019-2\2019-2겜소공\11_2016180055\SIMPLEGAME\SIMPLEGAME\DEPENDENCIES\GLM\GTX\COMPATIBILITY.INL
E:\과제\게임공학\2019-2\2019-2겜소공\11_2016180055\SIMPLEGAME\SIMPLEGAME\LOADPNG.H
E:\과제\게임공학\2019-2\2019-2겜소공\11_2016180055\SIMPLEGAME\SIMPLEGAME\OBJECT.H
E:\과제\게임공학\2019-2\2019-2겜소공\11_2016180055\SIMPLEGAME\SIMPLEGAME\GLOBALS.H
