^E:\게임소프트웨어공학\SIMPLEGAME\SIMPLEGAME\STDAFX.CPP
/c /ZI /JMC /nologo /W3 /WX- /diagnostics:classic /sdl /Od /D _DEBUG /D _CONSOLE /D _UNICODE /D UNICODE /Gm- /EHsc /RTC1 /MDd /GS /fp:precise /Zc:wchar_t /Zc:forScope /Zc:inline /Yc"stdafx.h" /Fp"X64\DEBUG\SIMPLEGAME.PCH" /Fo"X64\DEBUG\\" /Fd"X64\DEBUG\VC141.PDB" /Gd /TP /FC E:\게임소프트웨어공학\SIMPLEGAME\SIMPLEGAME\STDAFX.CPP
^E:\게임소프트웨어공학\SIMPLEGAME\SIMPLEGAME\RENDERER.CPP
/c /ZI /JMC /nologo /W3 /WX- /diagnostics:classic /sdl /Od /D _DEBUG /D _CONSOLE /D _UNICODE /D UNICODE /Gm- /EHsc /RTC1 /MDd /GS /fp:precise /Zc:wchar_t /Zc:forScope /Zc:inline /Yu"stdafx.h" /Fp"X64\DEBUG\SIMPLEGAME.PCH" /Fo"X64\DEBUG\\" /Fd"X64\DEBUG\VC141.PDB" /Gd /TP /FC E:\게임소프트웨어공학\SIMPLEGAME\SIMPLEGAME\RENDERER.CPP
^E:\게임소프트웨어공학\SIMPLEGAME\SIMPLEGAME\SIMPLEGAME.CPP
/c /ZI /JMC /nologo /W3 /WX- /diagnostics:classic /sdl /Od /D _DEBUG /D _CONSOLE /D _UNICODE /D UNICODE /Gm- /EHsc /RTC1 /MDd /GS /fp:precise /Zc:wchar_t /Zc:forScope /Zc:inline /Yu"stdafx.h" /Fp"X64\DEBUG\SIMPLEGAME.PCH" /Fo"X64\DEBUG\\" /Fd"X64\DEBUG\VC141.PDB" /Gd /TP /FC E:\게임소프트웨어공학\SIMPLEGAME\SIMPLEGAME\SIMPLEGAME.CPP
^E:\게임소프트웨어공학\SIMPLEGAME\SIMPLEGAME\SCNMGR.CPP
/c /ZI /JMC /nologo /W3 /WX- /diagnostics:classic /sdl /Od /D _DEBUG /D _CONSOLE /D _UNICODE /D UNICODE /Gm- /EHsc /RTC1 /MDd /GS /fp:precise /Zc:wchar_t /Zc:forScope /Zc:inline /Yu"stdafx.h" /Fp"X64\DEBUG\SIMPLEGAME.PCH" /Fo"X64\DEBUG\\" /Fd"X64\DEBUG\VC141.PDB" /Gd /TP /FC E:\게임소프트웨어공학\SIMPLEGAME\SIMPLEGAME\SCNMGR.CPP
^E:\게임소프트웨어공학\0920실습\SIMPLEGAME\SIMPLEGAME\STDAFX.CPP
/c /ZI /JMC /nologo /W3 /WX- /diagnostics:classic /sdl /Od /D _DEBUG /D _CONSOLE /D _UNICODE /D UNICODE /Gm- /EHsc /RTC1 /MDd /GS /fp:precise /Zc:wchar_t /Zc:forScope /Zc:inline /Yc"stdafx.h" /Fp"X64\DEBUG\SIMPLEGAME.PCH" /Fo"X64\DEBUG\\" /Fd"X64\DEBUG\VC141.PDB" /Gd /TP /FC E:\게임소프트웨어공학\0920실습\SIMPLEGAME\SIMPLEGAME\STDAFX.CPP
^E:\게임소프트웨어공학\0920실습\SIMPLEGAME\SIMPLEGAME\RENDERER.CPP
/c /ZI /JMC /nologo /W3 /WX- /diagnostics:classic /sdl /Od /D _DEBUG /D _CONSOLE /D _UNICODE /D UNICODE /Gm- /EHsc /RTC1 /MDd /GS /fp:precise /Zc:wchar_t /Zc:forScope /Zc:inline /Yu"stdafx.h" /Fp"X64\DEBUG\SIMPLEGAME.PCH" /Fo"X64\DEBUG\\" /Fd"X64\DEBUG\VC141.PDB" /Gd /TP /FC E:\게임소프트웨어공학\0920실습\SIMPLEGAME\SIMPLEGAME\RENDERER.CPP
^E:\게임소프트웨어공학\0920실습\SIMPLEGAME\SIMPLEGAME\OBJECT.CPP
/c /ZI /JMC /nologo /W3 /WX- /diagnostics:classic /sdl /Od /D _DEBUG /D _CONSOLE /D _UNICODE /D UNICODE /Gm- /EHsc /RTC1 /MDd /GS /fp:precise /Zc:wchar_t /Zc:forScope /Zc:inline /Yu"stdafx.h" /Fp"X64\DEBUG\SIMPLEGAME.PCH" /Fo"X64\DEBUG\\" /Fd"X64\DEBUG\VC141.PDB" /Gd /TP /FC E:\게임소프트웨어공학\0920실습\SIMPLEGAME\SIMPLEGAME\OBJECT.CPP
^E:\게임소프트웨어공학\0920실습\SIMPLEGAME\SIMPLEGAME\SCNMGR.CPP
/c /ZI /JMC /nologo /W3 /WX- /diagnostics:classic /sdl /Od /D _DEBUG /D _CONSOLE /D _UNICODE /D UNICODE /Gm- /EHsc /RTC1 /MDd /GS /fp:precise /Zc:wchar_t /Zc:forScope /Zc:inline /Yu"stdafx.h" /Fp"X64\DEBUG\SIMPLEGAME.PCH" /Fo"X64\DEBUG\\" /Fd"X64\DEBUG\VC141.PDB" /Gd /TP /FC E:\게임소프트웨어공학\0920실습\SIMPLEGAME\SIMPLEGAME\SCNMGR.CPP
^E:\게임소프트웨어공학\0920실습\SIMPLEGAME\SIMPLEGAME\SIMPLEGAME.CPP
/c /ZI /JMC /nologo /W3 /WX- /diagnostics:classic /sdl /Od /D _DEBUG /D _CONSOLE /D _UNICODE /D UNICODE /Gm- /EHsc /RTC1 /MDd /GS /fp:precise /Zc:wchar_t /Zc:forScope /Zc:inline /Yu"stdafx.h" /Fp"X64\DEBUG\SIMPLEGAME.PCH" /Fo"X64\DEBUG\\" /Fd"X64\DEBUG\VC141.PDB" /Gd /TP /FC E:\게임소프트웨어공학\0920실습\SIMPLEGAME\SIMPLEGAME\SIMPLEGAME.CPP
^E:\GITPROJECT\02_2016182055\SIMPLEGAME\SIMPLEGAME\STDAFX.CPP
/c /ZI /JMC /nologo /W3 /WX- /diagnostics:classic /sdl /Od /D _DEBUG /D _CONSOLE /D _UNICODE /D UNICODE /Gm- /EHsc /RTC1 /MDd /GS /fp:precise /Zc:wchar_t /Zc:forScope /Zc:inline /Yc"stdafx.h" /Fp"X64\DEBUG\SIMPLEGAME.PCH" /Fo"X64\DEBUG\\" /Fd"X64\DEBUG\VC141.PDB" /Gd /TP /FC E:\GITPROJECT\02_2016182055\SIMPLEGAME\SIMPLEGAME\STDAFX.CPP
^E:\GITPROJECT\02_2016182055\SIMPLEGAME\SIMPLEGAME\RENDERER.CPP
/c /ZI /JMC /nologo /W3 /WX- /diagnostics:classic /sdl /Od /D _DEBUG /D _CONSOLE /D _UNICODE /D UNICODE /Gm- /EHsc /RTC1 /MDd /GS /fp:precise /Zc:wchar_t /Zc:forScope /Zc:inline /Yu"stdafx.h" /Fp"X64\DEBUG\SIMPLEGAME.PCH" /Fo"X64\DEBUG\\" /Fd"X64\DEBUG\VC141.PDB" /Gd /TP /FC E:\GITPROJECT\02_2016182055\SIMPLEGAME\SIMPLEGAME\RENDERER.CPP
^E:\GITPROJECT\02_2016182055\SIMPLEGAME\SIMPLEGAME\OBJECT.CPP
/c /ZI /JMC /nologo /W3 /WX- /diagnostics:classic /sdl /Od /D _DEBUG /D _CONSOLE /D _UNICODE /D UNICODE /Gm- /EHsc /RTC1 /MDd /GS /fp:precise /Zc:wchar_t /Zc:forScope /Zc:inline /Yu"stdafx.h" /Fp"X64\DEBUG\SIMPLEGAME.PCH" /Fo"X64\DEBUG\\" /Fd"X64\DEBUG\VC141.PDB" /Gd /TP /FC E:\GITPROJECT\02_2016182055\SIMPLEGAME\SIMPLEGAME\OBJECT.CPP
^E:\GITPROJECT\02_2016182055\SIMPLEGAME\SIMPLEGAME\SCNMGR.CPP
/c /ZI /JMC /nologo /W3 /WX- /diagnostics:classic /sdl /Od /D _DEBUG /D _CONSOLE /D _UNICODE /D UNICODE /Gm- /EHsc /RTC1 /MDd /GS /fp:precise /Zc:wchar_t /Zc:forScope /Zc:inline /Yu"stdafx.h" /Fp"X64\DEBUG\SIMPLEGAME.PCH" /Fo"X64\DEBUG\\" /Fd"X64\DEBUG\VC141.PDB" /Gd /TP /FC E:\GITPROJECT\02_2016182055\SIMPLEGAME\SIMPLEGAME\SCNMGR.CPP
^E:\GITPROJECT\02_2016182055\SIMPLEGAME\SIMPLEGAME\SIMPLEGAME.CPP
/c /ZI /JMC /nologo /W3 /WX- /diagnostics:classic /sdl /Od /D _DEBUG /D _CONSOLE /D _UNICODE /D UNICODE /Gm- /EHsc /RTC1 /MDd /GS /fp:precise /Zc:wchar_t /Zc:forScope /Zc:inline /Yu"stdafx.h" /Fp"X64\DEBUG\SIMPLEGAME.PCH" /Fo"X64\DEBUG\\" /Fd"X64\DEBUG\VC141.PDB" /Gd /TP /FC E:\GITPROJECT\02_2016182055\SIMPLEGAME\SIMPLEGAME\SIMPLEGAME.CPP
^E:\과제\게임공학\2019-2\2019-2겜소공\SIMPLEGAME\SIMPLEGAME\STDAFX.CPP
/c /ZI /JMC /nologo /W3 /WX- /diagnostics:classic /sdl /Od /D _DEBUG /D _CONSOLE /D _UNICODE /D UNICODE /Gm- /EHsc /RTC1 /MDd /GS /fp:precise /Zc:wchar_t /Zc:forScope /Zc:inline /Yc"stdafx.h" /Fp"X64\DEBUG\SIMPLEGAME.PCH" /Fo"X64\DEBUG\\" /Fd"X64\DEBUG\VC141.PDB" /Gd /TP /FC E:\과제\게임공학\2019-2\2019-2겜소공\SIMPLEGAME\SIMPLEGAME\STDAFX.CPP
^E:\과제\게임공학\2019-2\2019-2겜소공\11_2016180055\SIMPLEGAME\SIMPLEGAME\STDAFX.CPP
/c /ZI /JMC /nologo /W3 /WX- /diagnostics:classic /sdl /Od /D _DEBUG /D _CONSOLE /D _UNICODE /D UNICODE /Gm- /EHsc /RTC1 /MDd /GS /fp:precise /Zc:wchar_t /Zc:forScope /Zc:inline /Yc"stdafx.h" /Fp"X64\DEBUG\SIMPLEGAME.PCH" /Fo"X64\DEBUG\\" /Fd"X64\DEBUG\VC141.PDB" /Gd /TP /FC E:\과제\게임공학\2019-2\2019-2겜소공\11_2016180055\SIMPLEGAME\SIMPLEGAME\STDAFX.CPP
^E:\과제\게임공학\2019-2\2019-2겜소공\11_2016180055\SIMPLEGAME\SIMPLEGAME\PHYSICS.CPP
/c /ZI /JMC /nologo /W3 /WX- /diagnostics:classic /sdl /Od /D _DEBUG /D _CONSOLE /D _UNICODE /D UNICODE /Gm- /EHsc /RTC1 /MDd /GS /fp:precise /Zc:wchar_t /Zc:forScope /Zc:inline /Yu"stdafx.h" /Fp"X64\DEBUG\SIMPLEGAME.PCH" /Fo"X64\DEBUG\\" /Fd"X64\DEBUG\VC141.PDB" /Gd /TP /FC E:\과제\게임공학\2019-2\2019-2겜소공\11_2016180055\SIMPLEGAME\SIMPLEGAME\PHYSICS.CPP
^E:\과제\게임공학\2019-2\2019-2겜소공\11_2016180055\SIMPLEGAME\SIMPLEGAME\RENDERER.CPP
/c /ZI /JMC /nologo /W3 /WX- /diagnostics:classic /sdl /Od /D _DEBUG /D _CONSOLE /D _UNICODE /D UNICODE /Gm- /EHsc /RTC1 /MDd /GS /fp:precise /Zc:wchar_t /Zc:forScope /Zc:inline /Yu"stdafx.h" /Fp"X64\DEBUG\SIMPLEGAME.PCH" /Fo"X64\DEBUG\\" /Fd"X64\DEBUG\VC141.PDB" /Gd /TP /FC E:\과제\게임공학\2019-2\2019-2겜소공\11_2016180055\SIMPLEGAME\SIMPLEGAME\RENDERER.CPP
^E:\과제\게임공학\2019-2\2019-2겜소공\SIMPLEGAME\SIMPLEGAME\LOADPNG.CPP
/c /ZI /JMC /nologo /W3 /WX- /diagnostics:classic /sdl /Od /D _DEBUG /D _CONSOLE /D _UNICODE /D UNICODE /Gm- /EHsc /RTC1 /MDd /GS /fp:precise /Zc:wchar_t /Zc:forScope /Zc:inline /Yu"stdafx.h" /Fp"X64\DEBUG\SIMPLEGAME.PCH" /Fo"X64\DEBUG\\" /Fd"X64\DEBUG\VC141.PDB" /Gd /TP /FC E:\과제\게임공학\2019-2\2019-2겜소공\SIMPLEGAME\SIMPLEGAME\LOADPNG.CPP
^E:\과제\게임공학\2019-2\2019-2겜소공\SIMPLEGAME\SIMPLEGAME\RENDERER.CPP
/c /ZI /JMC /nologo /W3 /WX- /diagnostics:classic /sdl /Od /D _DEBUG /D _CONSOLE /D _UNICODE /D UNICODE /Gm- /EHsc /RTC1 /MDd /GS /fp:precise /Zc:wchar_t /Zc:forScope /Zc:inline /Yu"stdafx.h" /Fp"X64\DEBUG\SIMPLEGAME.PCH" /Fo"X64\DEBUG\\" /Fd"X64\DEBUG\VC141.PDB" /Gd /TP /FC E:\과제\게임공학\2019-2\2019-2겜소공\SIMPLEGAME\SIMPLEGAME\RENDERER.CPP
^E:\과제\게임공학\2019-2\2019-2겜소공\SIMPLEGAME\SIMPLEGAME\SOUND.CPP
/c /ZI /JMC /nologo /W3 /WX- /diagnostics:classic /sdl /Od /D _DEBUG /D _CONSOLE /D _UNICODE /D UNICODE /Gm- /EHsc /RTC1 /MDd /GS /fp:precise /Zc:wchar_t /Zc:forScope /Zc:inline /Yu"stdafx.h" /Fp"X64\DEBUG\SIMPLEGAME.PCH" /Fo"X64\DEBUG\\" /Fd"X64\DEBUG\VC141.PDB" /Gd /TP /FC E:\과제\게임공학\2019-2\2019-2겜소공\SIMPLEGAME\SIMPLEGAME\SOUND.CPP
^E:\과제\게임공학\2019-2\2019-2겜소공\SIMPLEGAME\SIMPLEGAME\PHYSICS.CPP
/c /ZI /JMC /nologo /W3 /WX- /diagnostics:classic /sdl /Od /D _DEBUG /D _CONSOLE /D _UNICODE /D UNICODE /Gm- /EHsc /RTC1 /MDd /GS /fp:precise /Zc:wchar_t /Zc:forScope /Zc:inline /Yu"stdafx.h" /Fp"X64\DEBUG\SIMPLEGAME.PCH" /Fo"X64\DEBUG\\" /Fd"X64\DEBUG\VC141.PDB" /Gd /TP /FC E:\과제\게임공학\2019-2\2019-2겜소공\SIMPLEGAME\SIMPLEGAME\PHYSICS.CPP
^E:\과제\게임공학\2019-2\2019-2겜소공\SIMPLEGAME\SIMPLEGAME\SIMPLEGAME.CPP
/c /ZI /JMC /nologo /W3 /WX- /diagnostics:classic /sdl /Od /D _DEBUG /D _CONSOLE /D _UNICODE /D UNICODE /Gm- /EHsc /RTC1 /MDd /GS /fp:precise /Zc:wchar_t /Zc:forScope /Zc:inline /Yu"stdafx.h" /Fp"X64\DEBUG\SIMPLEGAME.PCH" /Fo"X64\DEBUG\\" /Fd"X64\DEBUG\VC141.PDB" /Gd /TP /FC E:\과제\게임공학\2019-2\2019-2겜소공\SIMPLEGAME\SIMPLEGAME\SIMPLEGAME.CPP
^E:\과제\게임공학\2019-2\2019-2겜소공\SIMPLEGAME\SIMPLEGAME\OBJECT.CPP
/c /ZI /JMC /nologo /W3 /WX- /diagnostics:classic /sdl /Od /D _DEBUG /D _CONSOLE /D _UNICODE /D UNICODE /Gm- /EHsc /RTC1 /MDd /GS /fp:precise /Zc:wchar_t /Zc:forScope /Zc:inline /Yu"stdafx.h" /Fp"X64\DEBUG\SIMPLEGAME.PCH" /Fo"X64\DEBUG\\" /Fd"X64\DEBUG\VC141.PDB" /Gd /TP /FC E:\과제\게임공학\2019-2\2019-2겜소공\SIMPLEGAME\SIMPLEGAME\OBJECT.CPP
^E:\과제\게임공학\2019-2\2019-2겜소공\SIMPLEGAME\SIMPLEGAME\SCNMGR.CPP
/c /ZI /JMC /nologo /W3 /WX- /diagnostics:classic /sdl /Od /D _DEBUG /D _CONSOLE /D _UNICODE /D UNICODE /Gm- /EHsc /RTC1 /MDd /GS /fp:precise /Zc:wchar_t /Zc:forScope /Zc:inline /Yu"stdafx.h" /Fp"X64\DEBUG\SIMPLEGAME.PCH" /Fo"X64\DEBUG\\" /Fd"X64\DEBUG\VC141.PDB" /Gd /TP /FC E:\과제\게임공학\2019-2\2019-2겜소공\SIMPLEGAME\SIMPLEGAME\SCNMGR.CPP
^E:\과제\게임공학\2019-2\2019-2겜소공\11_2016180055\SIMPLEGAME\SIMPLEGAME\LOADPNG.CPP
/c /ZI /JMC /nologo /W3 /WX- /diagnostics:classic /sdl /Od /D _DEBUG /D _CONSOLE /D _UNICODE /D UNICODE /Gm- /EHsc /RTC1 /MDd /GS /fp:precise /Zc:wchar_t /Zc:forScope /Zc:inline /Yu"stdafx.h" /Fp"X64\DEBUG\SIMPLEGAME.PCH" /Fo"X64\DEBUG\\" /Fd"X64\DEBUG\VC141.PDB" /Gd /TP /FC E:\과제\게임공학\2019-2\2019-2겜소공\11_2016180055\SIMPLEGAME\SIMPLEGAME\LOADPNG.CPP
^E:\과제\게임공학\2019-2\2019-2겜소공\11_2016180055\SIMPLEGAME\SIMPLEGAME\OBJECT.CPP
/c /ZI /JMC /nologo /W3 /WX- /diagnostics:classic /sdl /Od /D _DEBUG /D _CONSOLE /D _UNICODE /D UNICODE /Gm- /EHsc /RTC1 /MDd /GS /fp:precise /Zc:wchar_t /Zc:forScope /Zc:inline /Yu"stdafx.h" /Fp"X64\DEBUG\SIMPLEGAME.PCH" /Fo"X64\DEBUG\\" /Fd"X64\DEBUG\VC141.PDB" /Gd /TP /FC E:\과제\게임공학\2019-2\2019-2겜소공\11_2016180055\SIMPLEGAME\SIMPLEGAME\OBJECT.CPP
^E:\과제\게임공학\2019-2\2019-2겜소공\11_2016180055\SIMPLEGAME\SIMPLEGAME\SCNMGR.CPP
/c /ZI /JMC /nologo /W3 /WX- /diagnostics:classic /sdl /Od /D _DEBUG /D _CONSOLE /D _UNICODE /D UNICODE /Gm- /EHsc /RTC1 /MDd /GS /fp:precise /Zc:wchar_t /Zc:forScope /Zc:inline /Yu"stdafx.h" /Fp"X64\DEBUG\SIMPLEGAME.PCH" /Fo"X64\DEBUG\\" /Fd"X64\DEBUG\VC141.PDB" /Gd /TP /FC E:\과제\게임공학\2019-2\2019-2겜소공\11_2016180055\SIMPLEGAME\SIMPLEGAME\SCNMGR.CPP
^E:\과제\게임공학\2019-2\2019-2겜소공\11_2016180055\SIMPLEGAME\SIMPLEGAME\SIMPLEGAME.CPP
/c /ZI /JMC /nologo /W3 /WX- /diagnostics:classic /sdl /Od /D _DEBUG /D _CONSOLE /D _UNICODE /D UNICODE /Gm- /EHsc /RTC1 /MDd /GS /fp:precise /Zc:wchar_t /Zc:forScope /Zc:inline /Yu"stdafx.h" /Fp"X64\DEBUG\SIMPLEGAME.PCH" /Fo"X64\DEBUG\\" /Fd"X64\DEBUG\VC141.PDB" /Gd /TP /FC E:\과제\게임공학\2019-2\2019-2겜소공\11_2016180055\SIMPLEGAME\SIMPLEGAME\SIMPLEGAME.CPP
^E:\과제\게임공학\2019-2\2019-2겜소공\11_2016180055\SIMPLEGAME\SIMPLEGAME\SOUND.CPP
/c /ZI /JMC /nologo /W3 /WX- /diagnostics:classic /sdl /Od /D _DEBUG /D _CONSOLE /D _UNICODE /D UNICODE /Gm- /EHsc /RTC1 /MDd /GS /fp:precise /Zc:wchar_t /Zc:forScope /Zc:inline /Yu"stdafx.h" /Fp"X64\DEBUG\SIMPLEGAME.PCH" /Fo"X64\DEBUG\\" /Fd"X64\DEBUG\VC141.PDB" /Gd /TP /FC E:\과제\게임공학\2019-2\2019-2겜소공\11_2016180055\SIMPLEGAME\SIMPLEGAME\SOUND.CPP
