^E:\과제\게임공학\2019-2\2019-2겜소공\SIMPLEGAME\SIMPLEGAME\X64\DEBUG\LOADPNG.OBJ|E:\과제\게임공학\2019-2\2019-2겜소공\SIMPLEGAME\SIMPLEGAME\X64\DEBUG\OBJECT.OBJ|E:\과제\게임공학\2019-2\2019-2겜소공\SIMPLEGAME\SIMPLEGAME\X64\DEBUG\PHYSICS.OBJ|E:\과제\게임공학\2019-2\2019-2겜소공\SIMPLEGAME\SIMPLEGAME\X64\DEBUG\RENDERER.OBJ|E:\과제\게임공학\2019-2\2019-2겜소공\SIMPLEGAME\SIMPLEGAME\X64\DEBUG\SCNMGR.OBJ|E:\과제\게임공학\2019-2\2019-2겜소공\SIMPLEGAME\SIMPLEGAME\X64\DEBUG\SIMPLEGAME.OBJ|E:\과제\게임공학\2019-2\2019-2겜소공\SIMPLEGAME\SIMPLEGAME\X64\DEBUG\SOUND.OBJ|E:\과제\게임공학\2019-2\2019-2겜소공\SIMPLEGAME\SIMPLEGAME\X64\DEBUG\STDAFX.OBJ
E:\과제\게임공학\2019-2\2019-2겜소공\SIMPLEGAME\X64\DEBUG\SIMPLEGAME.EXE
E:\과제\게임공학\2019-2\2019-2겜소공\SIMPLEGAME\X64\DEBUG\SIMPLEGAME.ILK
E:\과제\게임공학\2019-2\2019-2겜소공\SIMPLEGAME\X64\DEBUG\SIMPLEGAME.PDB
^E:\과제\게임공학\2019-2\2019-2겜소공\11_2016180055\SIMPLEGAME\SIMPLEGAME\X64\DEBUG\LOADPNG.OBJ|E:\과제\게임공학\2019-2\2019-2겜소공\11_2016180055\SIMPLEGAME\SIMPLEGAME\X64\DEBUG\OBJECT.OBJ|E:\과제\게임공학\2019-2\2019-2겜소공\11_2016180055\SIMPLEGAME\SIMPLEGAME\X64\DEBUG\PHYSICS.OBJ|E:\과제\게임공학\2019-2\2019-2겜소공\11_2016180055\SIMPLEGAME\SIMPLEGAME\X64\DEBUG\RENDERER.OBJ|E:\과제\게임공학\2019-2\2019-2겜소공\11_2016180055\SIMPLEGAME\SIMPLEGAME\X64\DEBUG\SCNMGR.OBJ|E:\과제\게임공학\2019-2\2019-2겜소공\11_2016180055\SIMPLEGAME\SIMPLEGAME\X64\DEBUG\SIMPLEGAME.OBJ|E:\과제\게임공학\2019-2\2019-2겜소공\11_2016180055\SIMPLEGAME\SIMPLEGAME\X64\DEBUG\SOUND.OBJ|E:\과제\게임공학\2019-2\2019-2겜소공\11_2016180055\SIMPLEGAME\SIMPLEGAME\X64\DEBUG\STDAFX.OBJ
E:\과제\게임공학\2019-2\2019-2겜소공\11_2016180055\SIMPLEGAME\X64\DEBUG\SIMPLEGAME.EXE
E:\과제\게임공학\2019-2\2019-2겜소공\11_2016180055\SIMPLEGAME\X64\DEBUG\SIMPLEGAME.ILK
E:\과제\게임공학\2019-2\2019-2겜소공\11_2016180055\SIMPLEGAME\X64\DEBUG\SIMPLEGAME.PDB
