﻿  LoadPng.cpp
e:\과제\게임공학\2019-2\2019-2겜소공\11_2016180055\simplegame\simplegame\loadpng.cpp(800): warning C4334: '<<': 32비트 시프트의 결과가 암시적으로 64비트로 변환됩니다. 64비트 시프트를 사용하시겠습니까?
e:\과제\게임공학\2019-2\2019-2겜소공\11_2016180055\simplegame\simplegame\loadpng.cpp(1462): warning C4267: '=': 'size_t'에서 'int'(으)로 변환하면서 데이터가 손실될 수 있습니다.
e:\과제\게임공학\2019-2\2019-2겜소공\11_2016180055\simplegame\simplegame\loadpng.cpp(1466): warning C4267: '=': 'size_t'에서 'int'(으)로 변환하면서 데이터가 손실될 수 있습니다.
e:\과제\게임공학\2019-2\2019-2겜소공\11_2016180055\simplegame\simplegame\loadpng.cpp(1538): warning C4267: '=': 'size_t'에서 'unsigned int'(으)로 변환하면서 데이터가 손실될 수 있습니다.
e:\과제\게임공학\2019-2\2019-2겜소공\11_2016180055\simplegame\simplegame\loadpng.cpp(3483): warning C4334: '<<': 32비트 시프트의 결과가 암시적으로 64비트로 변환됩니다. 64비트 시프트를 사용하시겠습니까?
e:\과제\게임공학\2019-2\2019-2겜소공\11_2016180055\simplegame\simplegame\loadpng.cpp(3497): warning C4267: '인수': 'size_t'에서 'unsigned int'(으)로 변환하면서 데이터가 손실될 수 있습니다.
e:\과제\게임공학\2019-2\2019-2겜소공\11_2016180055\simplegame\simplegame\loadpng.cpp(4338): warning C4267: '=': 'size_t'에서 'unsigned int'(으)로 변환하면서 데이터가 손실될 수 있습니다.
e:\과제\게임공학\2019-2\2019-2겜소공\11_2016180055\simplegame\simplegame\loadpng.cpp(4386): warning C4267: '=': 'size_t'에서 'unsigned int'(으)로 변환하면서 데이터가 손실될 수 있습니다.
e:\과제\게임공학\2019-2\2019-2겜소공\11_2016180055\simplegame\simplegame\loadpng.cpp(4466): warning C4267: '=': 'size_t'에서 'unsigned int'(으)로 변환하면서 데이터가 손실될 수 있습니다.
e:\과제\게임공학\2019-2\2019-2겜소공\11_2016180055\simplegame\simplegame\loadpng.cpp(5409): warning C4267: '초기화 중': 'size_t'에서 'unsigned int'(으)로 변환하면서 데이터가 손실될 수 있습니다.
e:\과제\게임공학\2019-2\2019-2겜소공\11_2016180055\simplegame\simplegame\loadpng.cpp(6296): warning C4018: '<': signed 또는 unsigned가 일치하지 않습니다.
  Object.cpp
e:\과제\게임공학\2019-2\2019-2겜소공\11_2016180055\simplegame\simplegame\object.cpp(88): warning C4244: '초기화 중': 'double'에서 'float'(으)로 변환하면서 데이터가 손실될 수 있습니다.
e:\과제\게임공학\2019-2\2019-2겜소공\11_2016180055\simplegame\simplegame\object.cpp(116): warning C4244: '=': 'double'에서 'float'(으)로 변환하면서 데이터가 손실될 수 있습니다.
  ScnMgr.cpp
e:\과제\게임공학\2019-2\2019-2겜소공\11_2016180055\simplegame\simplegame\renderer.h(27): warning C4091: 'typedef ': 변수를 선언하지 않으면 'S_PARTICLE' 왼쪽은 무시됩니다.
e:\과제\게임공학\2019-2\2019-2겜소공\11_2016180055\simplegame\simplegame\scnmgr.cpp(32): warning C4305: '인수': 'double'에서 'float'(으)로 잘립니다.
e:\과제\게임공학\2019-2\2019-2겜소공\11_2016180055\simplegame\simplegame\scnmgr.cpp(148): warning C4101: 'type' :참조되지 않은 지역 변수입니다.
e:\과제\게임공학\2019-2\2019-2겜소공\11_2016180055\simplegame\simplegame\scnmgr.cpp(147): warning C4101: 'mass' :참조되지 않은 지역 변수입니다.
e:\과제\게임공학\2019-2\2019-2겜소공\11_2016180055\simplegame\simplegame\scnmgr.cpp(144): warning C4101: 'vx' :참조되지 않은 지역 변수입니다.
e:\과제\게임공학\2019-2\2019-2겜소공\11_2016180055\simplegame\simplegame\scnmgr.cpp(149): warning C4101: 'hp' :참조되지 않은 지역 변수입니다.
e:\과제\게임공학\2019-2\2019-2겜소공\11_2016180055\simplegame\simplegame\scnmgr.cpp(146): warning C4101: 'FricCoef' :참조되지 않은 지역 변수입니다.
e:\과제\게임공학\2019-2\2019-2겜소공\11_2016180055\simplegame\simplegame\scnmgr.cpp(144): warning C4101: 'vy' :참조되지 않은 지역 변수입니다.
e:\과제\게임공학\2019-2\2019-2겜소공\11_2016180055\simplegame\simplegame\scnmgr.cpp(144): warning C4101: 'vz' :참조되지 않은 지역 변수입니다.
e:\과제\게임공학\2019-2\2019-2겜소공\11_2016180055\simplegame\simplegame\scnmgr.cpp(268): warning C4305: '인수': 'double'에서 'float'(으)로 잘립니다.
e:\과제\게임공학\2019-2\2019-2겜소공\11_2016180055\simplegame\simplegame\scnmgr.cpp(270): warning C4305: '인수': 'double'에서 'float'(으)로 잘립니다.
  SimpleGame.cpp
e:\과제\게임공학\2019-2\2019-2겜소공\11_2016180055\simplegame\simplegame\renderer.h(27): warning C4091: 'typedef ': 변수를 선언하지 않으면 'S_PARTICLE' 왼쪽은 무시됩니다.
  Sound.cpp
  코드를 생성하고 있습니다...
  SimpleGame.vcxproj -> E:\과제\게임공학\2019-2\2019-2겜소공\11_2016180055\SimpleGame\x64\Debug\SimpleGame.exe
